Fracture location,Number
Third metacarpal,76
First phalanx,54
Carpus,59
Third metatarsal,19
Proximal sesamoid – both,17
Proximal sesamoid – Lateral,4
Proximal sesamoid – Medial,7
Proximal sesamoid – Unspecified,3
Second or third phalanx,4
Tarsus,3
Second or fourth metacarpal,1
Second or fourth metatarsal,1
