<?xml version="1.0" encoding="UTF-8" standalone="no"?>
<svg
   xmlns:dc="http://purl.org/dc/elements/1.1/"
   xmlns:cc="http://creativecommons.org/ns#"
   xmlns:rdf="http://www.w3.org/1999/02/22-rdf-syntax-ns#"
   xmlns:svg="http://www.w3.org/2000/svg"
   xmlns="http://www.w3.org/2000/svg"
   xmlns:sodipodi="http://sodipodi.sourceforge.net/DTD/sodipodi-0.dtd"
   xmlns:inkscape="http://www.inkscape.org/namespaces/inkscape"
   width="170mm"
   height="65.730225mm"
   viewBox="-40 -187.225 642.51968 248.42919"
   version="1.1"
   id="svg1977"
   sodipodi:docname="alexnet.svg"
   inkscape:version="1.0.1 (3bc2e813f5, 2020-09-07)">
  <metadata
     id="metadata1983">
    <rdf:RDF>
      <cc:Work
         rdf:about="">
        <dc:format>image/svg+xml</dc:format>
        <dc:type
           rdf:resource="http://purl.org/dc/dcmitype/StillImage" />
        <dc:title></dc:title>
      </cc:Work>
    </rdf:RDF>
  </metadata>
  <defs
     id="defs1981" />
  <sodipodi:namedview
     pagecolor="#ffffff"
     bordercolor="#666666"
     borderopacity="1"
     objecttolerance="10"
     gridtolerance="10"
     guidetolerance="10"
     inkscape:pageopacity="0"
     inkscape:pageshadow="2"
     inkscape:window-width="2560"
     inkscape:window-height="1376"
     id="namedview1979"
     showgrid="false"
     units="mm"
     fit-margin-top="0"
     fit-margin-left="0"
     fit-margin-right="0"
     fit-margin-bottom="0"
     inkscape:zoom="2.3090607"
     inkscape:cx="347.58216"
     inkscape:cy="63.608256"
     inkscape:window-x="0"
     inkscape:window-y="27"
     inkscape:window-maximized="1"
     inkscape:current-layer="svg1977" />
  <line
     x1="-39.5"
     y1="5.2506757"
     x2="-39.5"
     y2="-129.34787"
     stroke-width="0.999998"
     stroke-dasharray="none"
     stroke="#000000"
     id="line1427" />
  <line
     x1="-38.354092"
     y1="5.2506757"
     x2="-38.354092"
     y2="-129.34787"
     stroke-width="0.999998"
     stroke-dasharray="0.999998"
     stroke="#000000"
     id="line1429" />
  <line
     x1="42.070175"
     y1="52.360168"
     x2="42.070175"
     y2="-82.23838"
     stroke-width="0.999998"
     stroke-dasharray="none"
     stroke="#000000"
     id="line1431" />
  <line
     x1="43.21608"
     y1="52.360168"
     x2="43.21608"
     y2="-82.23838"
     stroke-width="0.999998"
     stroke-dasharray="none"
     stroke="#000000"
     id="line1433" />
  <line
     x1="-39.5"
     y1="5.2506757"
     x2="42.070175"
     y2="52.360168"
     stroke-width="0.999998"
     stroke-dasharray="none"
     stroke="#000000"
     id="line1435" />
  <line
     x1="-39.5"
     y1="-129.34787"
     x2="42.070175"
     y2="-82.23838"
     stroke-width="0.999998"
     stroke-dasharray="none"
     stroke="#000000"
     id="line1437" />
  <line
     x1="-38.354092"
     y1="5.2506757"
     x2="43.21608"
     y2="52.360168"
     stroke-width="0.999998"
     stroke-dasharray="0.999998"
     stroke="#000000"
     id="line1439" />
  <line
     x1="-38.354092"
     y1="-129.34787"
     x2="43.21608"
     y2="-82.23838"
     stroke-width="0.999998"
     stroke-dasharray="none"
     stroke="#000000"
     id="line1441" />
  <line
     x1="-39.5"
     y1="5.2506757"
     x2="-38.354092"
     y2="5.2506757"
     stroke-width="0.999998"
     stroke-dasharray="0.999998"
     stroke="#000000"
     id="line1443" />
  <line
     x1="42.070175"
     y1="52.360168"
     x2="43.21608"
     y2="52.360168"
     stroke-width="0.999998"
     stroke-dasharray="none"
     stroke="#000000"
     id="line1445" />
  <line
     x1="-39.5"
     y1="-129.34787"
     x2="-38.354092"
     y2="-129.34787"
     stroke-width="0.999998"
     stroke-dasharray="none"
     stroke="#000000"
     id="line1447" />
  <line
     x1="42.070175"
     y1="-82.23838"
     x2="43.21608"
     y2="-82.23838"
     stroke-width="0.999998"
     stroke-dasharray="none"
     stroke="#000000"
     id="line1449" />
  <text
     x="105.42745"
     y="-113.6393"
     font-family="arial"
     font-size="8.29992px"
     text-anchor="middle"
     fill="#000000"
     id="text1451"
     transform="matrix(0.70699472,-0.70699472,0.70721886,0.70721886,0,0)"
     style="font-style:normal;font-variant:normal;font-weight:normal;font-stretch:normal;font-size:16px;font-family:STIX;-inkscape-font-specification:STIX;stroke-width:0.999998">227x227x3</text>
  <text
     x="138.04962"
     y="20.119568"
     font-family="arial"
     font-size="8.29992px"
     text-anchor="middle"
     fill="#000000"
     id="text1477"
     transform="matrix(0.70699472,-0.70699472,0.70721886,0.70721886,0,0)"
     style="font-style:normal;font-variant:normal;font-weight:normal;font-stretch:normal;font-size:16px;font-family:STIX;-inkscape-font-specification:STIX;stroke-width:0.999998">55x55x96</text>
  <line
     x1="131.42276"
     y1="-33.29076"
     x2="131.42276"
     y2="-49.300282"
     stroke-width="0.999998"
     stroke-dasharray="none"
     stroke="#000000"
     id="line1479" />
  <line
     x1="140.59003"
     y1="-33.29076"
     x2="140.59003"
     y2="-49.300282"
     stroke-width="0.999998"
     stroke-dasharray="0.999998"
     stroke="#000000"
     id="line1481" />
  <line
     x1="141.12495"
     y1="-27.687428"
     x2="141.12495"
     y2="-43.696949"
     stroke-width="0.999998"
     stroke-dasharray="none"
     stroke="#000000"
     id="line1483" />
  <line
     x1="150.29221"
     y1="-27.687428"
     x2="150.29221"
     y2="-43.696949"
     stroke-width="0.999998"
     stroke-dasharray="none"
     stroke="#000000"
     id="line1485" />
  <line
     x1="131.42276"
     y1="-33.29076"
     x2="141.12495"
     y2="-27.687428"
     stroke-width="0.999998"
     stroke-dasharray="none"
     stroke="#000000"
     id="line1487" />
  <line
     x1="131.42276"
     y1="-49.300282"
     x2="141.12495"
     y2="-43.696949"
     stroke-width="0.999998"
     stroke-dasharray="none"
     stroke="#000000"
     id="line1489" />
  <line
     x1="140.59003"
     y1="-33.29076"
     x2="150.29221"
     y2="-27.687428"
     stroke-width="0.999998"
     stroke-dasharray="0.999998"
     stroke="#000000"
     id="line1491" />
  <line
     x1="140.59003"
     y1="-49.300282"
     x2="150.29221"
     y2="-43.696949"
     stroke-width="0.999998"
     stroke-dasharray="none"
     stroke="#000000"
     id="line1493" />
  <line
     x1="131.42276"
     y1="-33.29076"
     x2="140.59003"
     y2="-33.29076"
     stroke-width="0.999998"
     stroke-dasharray="0.999998"
     stroke="#000000"
     id="line1495" />
  <line
     x1="141.12495"
     y1="-27.687428"
     x2="150.29221"
     y2="-27.687428"
     stroke-width="0.999998"
     stroke-dasharray="none"
     stroke="#000000"
     id="line1497" />
  <line
     x1="131.42276"
     y1="-49.300282"
     x2="140.59003"
     y2="-49.300282"
     stroke-width="0.999998"
     stroke-dasharray="none"
     stroke="#000000"
     id="line1499" />
  <line
     x1="141.12495"
     y1="-43.696949"
     x2="150.29221"
     y2="-43.696949"
     stroke-width="0.999998"
     stroke-dasharray="none"
     stroke="#000000"
     id="line1501" />
  <text
     x="171.36897"
     y="69.466469"
     font-family="arial"
     font-size="8.29992px"
     text-anchor="middle"
     fill="#000000"
     id="text1503"
     transform="matrix(0.70699472,-0.70699472,0.70721886,0.70721886,0,0)"
     style="font-style:normal;font-variant:normal;font-weight:normal;font-stretch:normal;font-size:16px;font-family:STIX;-inkscape-font-specification:STIX;stroke-width:0.999998">27x27x96</text>
  <line
     x1="179.93007"
     y1="-33.29076"
     x2="179.93007"
     y2="-49.300282"
     stroke-width="0.999998"
     stroke-dasharray="none"
     stroke="#000000"
     id="line1505" />
  <line
     x1="196.44287"
     y1="-33.29076"
     x2="196.44287"
     y2="-49.300282"
     stroke-width="0.999998"
     stroke-dasharray="0.999998"
     stroke="#000000"
     id="line1507" />
  <line
     x1="189.63225"
     y1="-27.687428"
     x2="189.63225"
     y2="-43.696949"
     stroke-width="0.999998"
     stroke-dasharray="none"
     stroke="#000000"
     id="line1509" />
  <line
     x1="206.14505"
     y1="-27.687428"
     x2="206.14505"
     y2="-43.696949"
     stroke-width="0.999998"
     stroke-dasharray="none"
     stroke="#000000"
     id="line1511" />
  <line
     x1="179.93007"
     y1="-33.29076"
     x2="189.63225"
     y2="-27.687428"
     stroke-width="0.999998"
     stroke-dasharray="none"
     stroke="#000000"
     id="line1513" />
  <line
     x1="179.93007"
     y1="-49.300282"
     x2="189.63225"
     y2="-43.696949"
     stroke-width="0.999998"
     stroke-dasharray="none"
     stroke="#000000"
     id="line1515" />
  <line
     x1="196.44287"
     y1="-33.29076"
     x2="206.14505"
     y2="-27.687428"
     stroke-width="0.999998"
     stroke-dasharray="0.999998"
     stroke="#000000"
     id="line1517" />
  <line
     x1="196.44287"
     y1="-49.300282"
     x2="206.14505"
     y2="-43.696949"
     stroke-width="0.999998"
     stroke-dasharray="none"
     stroke="#000000"
     id="line1519" />
  <line
     x1="179.93007"
     y1="-33.29076"
     x2="196.44287"
     y2="-33.29076"
     stroke-width="0.999998"
     stroke-dasharray="0.999998"
     stroke="#000000"
     id="line1521" />
  <line
     x1="189.63225"
     y1="-27.687428"
     x2="206.14505"
     y2="-27.687428"
     stroke-width="0.999998"
     stroke-dasharray="none"
     stroke="#000000"
     id="line1523" />
  <line
     x1="179.93007"
     y1="-49.300282"
     x2="196.44287"
     y2="-49.300282"
     stroke-width="0.999998"
     stroke-dasharray="none"
     stroke="#000000"
     id="line1525" />
  <line
     x1="189.63225"
     y1="-43.696949"
     x2="206.14505"
     y2="-43.696949"
     stroke-width="0.999998"
     stroke-dasharray="none"
     stroke="#000000"
     id="line1527" />
  <text
     x="214.86914"
     y="108.95413"
     font-family="arial"
     font-size="8.29992px"
     text-anchor="middle"
     fill="#000000"
     id="text1529"
     transform="matrix(0.70699472,-0.70699472,0.70721886,0.70721886,0,0)"
     style="font-style:normal;font-variant:normal;font-weight:normal;font-stretch:normal;font-size:16px;font-family:STIX;-inkscape-font-specification:STIX;stroke-width:0.999998">27x27x256</text>
  <line
     x1="235.7829"
     y1="-35.988659"
     x2="235.7829"
     y2="-43.696949"
     stroke-width="0.999998"
     stroke-dasharray="none"
     stroke="#000000"
     id="line1531" />
  <line
     x1="252.29572"
     y1="-35.988659"
     x2="252.29572"
     y2="-43.696949"
     stroke-width="0.999998"
     stroke-dasharray="0.999998"
     stroke="#000000"
     id="line1533" />
  <line
     x1="240.45432"
     y1="-33.29076"
     x2="240.45432"
     y2="-40.99905"
     stroke-width="0.999998"
     stroke-dasharray="none"
     stroke="#000000"
     id="line1535" />
  <line
     x1="256.96713"
     y1="-33.29076"
     x2="256.96713"
     y2="-40.99905"
     stroke-width="0.999998"
     stroke-dasharray="none"
     stroke="#000000"
     id="line1537" />
  <line
     x1="235.7829"
     y1="-35.988659"
     x2="240.45432"
     y2="-33.29076"
     stroke-width="0.999998"
     stroke-dasharray="none"
     stroke="#000000"
     id="line1539" />
  <line
     x1="235.7829"
     y1="-43.696949"
     x2="240.45432"
     y2="-40.99905"
     stroke-width="0.999998"
     stroke-dasharray="none"
     stroke="#000000"
     id="line1541" />
  <line
     x1="252.29572"
     y1="-35.988659"
     x2="256.96713"
     y2="-33.29076"
     stroke-width="0.999998"
     stroke-dasharray="0.999998"
     stroke="#000000"
     id="line1543" />
  <line
     x1="252.29572"
     y1="-43.696949"
     x2="256.96713"
     y2="-40.99905"
     stroke-width="0.999998"
     stroke-dasharray="none"
     stroke="#000000"
     id="line1545" />
  <line
     x1="235.7829"
     y1="-35.988659"
     x2="252.29572"
     y2="-35.988659"
     stroke-width="0.999998"
     stroke-dasharray="0.999998"
     stroke="#000000"
     id="line1547" />
  <line
     x1="240.45432"
     y1="-33.29076"
     x2="256.96713"
     y2="-33.29076"
     stroke-width="0.999998"
     stroke-dasharray="none"
     stroke="#000000"
     id="line1549" />
  <line
     x1="235.7829"
     y1="-43.696949"
     x2="252.29572"
     y2="-43.696949"
     stroke-width="0.999998"
     stroke-dasharray="none"
     stroke="#000000"
     id="line1551" />
  <line
     x1="240.45432"
     y1="-40.99905"
     x2="256.96713"
     y2="-40.99905"
     stroke-width="0.999998"
     stroke-dasharray="none"
     stroke="#000000"
     id="line1553" />
  <text
     x="249.09454"
     y="152.40332"
     font-family="arial"
     font-size="8.29992px"
     text-anchor="middle"
     fill="#000000"
     id="text1555"
     transform="matrix(0.70699472,-0.70699472,0.70721886,0.70721886,0,0)"
     style="font-style:normal;font-variant:normal;font-weight:normal;font-stretch:normal;font-size:16px;font-family:STIX;-inkscape-font-specification:STIX;stroke-width:0.999998">13x13x256</text>
  <line
     x1="286.60501"
     y1="-35.988659"
     x2="286.60501"
     y2="-43.696949"
     stroke-width="0.999998"
     stroke-dasharray="none"
     stroke="#000000"
     id="line1557" />
  <line
     x1="307.66583"
     y1="-35.988659"
     x2="307.66583"
     y2="-43.696949"
     stroke-width="0.999998"
     stroke-dasharray="0.999998"
     stroke="#000000"
     id="line1559" />
  <line
     x1="291.2764"
     y1="-33.29076"
     x2="291.2764"
     y2="-40.99905"
     stroke-width="0.999998"
     stroke-dasharray="none"
     stroke="#000000"
     id="line1561" />
  <line
     x1="312.33728"
     y1="-33.29076"
     x2="312.33728"
     y2="-40.99905"
     stroke-width="0.999998"
     stroke-dasharray="none"
     stroke="#000000"
     id="line1563" />
  <line
     x1="286.60501"
     y1="-35.988659"
     x2="291.2764"
     y2="-33.29076"
     stroke-width="0.999998"
     stroke-dasharray="none"
     stroke="#000000"
     id="line1565" />
  <line
     x1="286.60501"
     y1="-43.696949"
     x2="291.2764"
     y2="-40.99905"
     stroke-width="0.999998"
     stroke-dasharray="none"
     stroke="#000000"
     id="line1567" />
  <line
     x1="307.66583"
     y1="-35.988659"
     x2="312.33728"
     y2="-33.29076"
     stroke-width="0.999998"
     stroke-dasharray="0.999998"
     stroke="#000000"
     id="line1569" />
  <line
     x1="307.66583"
     y1="-43.696949"
     x2="312.33728"
     y2="-40.99905"
     stroke-width="0.999998"
     stroke-dasharray="none"
     stroke="#000000"
     id="line1571" />
  <line
     x1="286.60501"
     y1="-35.988659"
     x2="307.66583"
     y2="-35.988659"
     stroke-width="0.999998"
     stroke-dasharray="0.999998"
     stroke="#000000"
     id="line1573" />
  <line
     x1="291.2764"
     y1="-33.29076"
     x2="312.33728"
     y2="-33.29076"
     stroke-width="0.999998"
     stroke-dasharray="none"
     stroke="#000000"
     id="line1575" />
  <line
     x1="286.60501"
     y1="-43.696949"
     x2="307.66583"
     y2="-43.696949"
     stroke-width="0.999998"
     stroke-dasharray="none"
     stroke="#000000"
     id="line1577" />
  <line
     x1="291.2764"
     y1="-40.99905"
     x2="312.33728"
     y2="-40.99905"
     stroke-width="0.999998"
     stroke-dasharray="none"
     stroke="#000000"
     id="line1579" />
  <text
     x="288.25333"
     y="191.54971"
     font-family="arial"
     font-size="8.29992px"
     text-anchor="middle"
     fill="#000000"
     id="text1581"
     transform="matrix(0.70699472,-0.70699472,0.70721886,0.70721886,0,0)"
     style="font-style:normal;font-variant:normal;font-weight:normal;font-stretch:normal;font-size:16px;font-family:STIX;-inkscape-font-specification:STIX;stroke-width:0.999998">13x13x384</text>
  <line
     x1="341.97513"
     y1="-35.988659"
     x2="341.97513"
     y2="-43.696949"
     stroke-width="0.999998"
     stroke-dasharray="none"
     stroke="#000000"
     id="line1583" />
  <line
     x1="363.03595"
     y1="-35.988659"
     x2="363.03595"
     y2="-43.696949"
     stroke-width="0.999998"
     stroke-dasharray="0.999998"
     stroke="#000000"
     id="line1585" />
  <line
     x1="346.64655"
     y1="-33.29076"
     x2="346.64655"
     y2="-40.99905"
     stroke-width="0.999998"
     stroke-dasharray="none"
     stroke="#000000"
     id="line1587" />
  <line
     x1="367.70737"
     y1="-33.29076"
     x2="367.70737"
     y2="-40.99905"
     stroke-width="0.999998"
     stroke-dasharray="none"
     stroke="#000000"
     id="line1589" />
  <line
     x1="341.97513"
     y1="-35.988659"
     x2="346.64655"
     y2="-33.29076"
     stroke-width="0.999998"
     stroke-dasharray="none"
     stroke="#000000"
     id="line1591" />
  <line
     x1="341.97513"
     y1="-43.696949"
     x2="346.64655"
     y2="-40.99905"
     stroke-width="0.999998"
     stroke-dasharray="none"
     stroke="#000000"
     id="line1593" />
  <line
     x1="363.03595"
     y1="-35.988659"
     x2="367.70737"
     y2="-33.29076"
     stroke-width="0.999998"
     stroke-dasharray="0.999998"
     stroke="#000000"
     id="line1595" />
  <line
     x1="363.03595"
     y1="-43.696949"
     x2="367.70737"
     y2="-40.99905"
     stroke-width="0.999998"
     stroke-dasharray="none"
     stroke="#000000"
     id="line1597" />
  <line
     x1="341.97513"
     y1="-35.988659"
     x2="363.03595"
     y2="-35.988659"
     stroke-width="0.999998"
     stroke-dasharray="0.999998"
     stroke="#000000"
     id="line1599" />
  <line
     x1="346.64655"
     y1="-33.29076"
     x2="367.70737"
     y2="-33.29076"
     stroke-width="0.999998"
     stroke-dasharray="none"
     stroke="#000000"
     id="line1601" />
  <line
     x1="341.97513"
     y1="-43.696949"
     x2="363.03595"
     y2="-43.696949"
     stroke-width="0.999998"
     stroke-dasharray="none"
     stroke="#000000"
     id="line1603" />
  <line
     x1="346.64655"
     y1="-40.99905"
     x2="367.70737"
     y2="-40.99905"
     stroke-width="0.999998"
     stroke-dasharray="none"
     stroke="#000000"
     id="line1605" />
  <text
     x="327.41211"
     y="230.69608"
     font-family="arial"
     font-size="8.29992px"
     text-anchor="middle"
     fill="#000000"
     id="text1607"
     transform="matrix(0.70699472,-0.70699472,0.70721886,0.70721886,0,0)"
     style="font-style:normal;font-variant:normal;font-weight:normal;font-stretch:normal;font-size:16px;font-family:STIX;-inkscape-font-specification:STIX;stroke-width:0.999998">13x13x384</text>
  <line
     x1="397.34521"
     y1="-35.988659"
     x2="397.34521"
     y2="-43.696949"
     stroke-width="0.999998"
     stroke-dasharray="none"
     stroke="#000000"
     id="line1609" />
  <line
     x1="413.85806"
     y1="-35.988659"
     x2="413.85806"
     y2="-43.696949"
     stroke-width="0.999998"
     stroke-dasharray="0.999998"
     stroke="#000000"
     id="line1611" />
  <line
     x1="402.01666"
     y1="-33.29076"
     x2="402.01666"
     y2="-40.99905"
     stroke-width="0.999998"
     stroke-dasharray="none"
     stroke="#000000"
     id="line1613" />
  <line
     x1="418.52945"
     y1="-33.29076"
     x2="418.52945"
     y2="-40.99905"
     stroke-width="0.999998"
     stroke-dasharray="none"
     stroke="#000000"
     id="line1615" />
  <line
     x1="397.34521"
     y1="-35.988659"
     x2="402.01666"
     y2="-33.29076"
     stroke-width="0.999998"
     stroke-dasharray="none"
     stroke="#000000"
     id="line1617" />
  <line
     x1="397.34521"
     y1="-43.696949"
     x2="402.01666"
     y2="-40.99905"
     stroke-width="0.999998"
     stroke-dasharray="none"
     stroke="#000000"
     id="line1619" />
  <line
     x1="413.85806"
     y1="-35.988659"
     x2="418.52945"
     y2="-33.29076"
     stroke-width="0.999998"
     stroke-dasharray="0.999998"
     stroke="#000000"
     id="line1621" />
  <line
     x1="413.85806"
     y1="-43.696949"
     x2="418.52945"
     y2="-40.99905"
     stroke-width="0.999998"
     stroke-dasharray="none"
     stroke="#000000"
     id="line1623" />
  <line
     x1="397.34521"
     y1="-35.988659"
     x2="413.85806"
     y2="-35.988659"
     stroke-width="0.999998"
     stroke-dasharray="0.999998"
     stroke="#000000"
     id="line1625" />
  <line
     x1="402.01666"
     y1="-33.29076"
     x2="418.52945"
     y2="-33.29076"
     stroke-width="0.999998"
     stroke-dasharray="none"
     stroke="#000000"
     id="line1627" />
  <line
     x1="397.34521"
     y1="-43.696949"
     x2="413.85806"
     y2="-43.696949"
     stroke-width="0.999998"
     stroke-dasharray="none"
     stroke="#000000"
     id="line1629" />
  <line
     x1="402.01666"
     y1="-40.99905"
     x2="418.52945"
     y2="-40.99905"
     stroke-width="0.999998"
     stroke-dasharray="none"
     stroke="#000000"
     id="line1631" />
  <text
     x="363.35446"
     y="266.62704"
     font-family="arial"
     font-size="8.29992px"
     text-anchor="middle"
     fill="#000000"
     id="text1633"
     transform="matrix(0.70699472,-0.70699472,0.70721886,0.70721886,0,0)"
     style="font-style:normal;font-variant:normal;font-weight:normal;font-stretch:normal;font-size:16px;font-family:STIX;-inkscape-font-specification:STIX;stroke-width:0.999998">13x13x256</text>
  <line
     x1="448.16733"
     y1="-37.337612"
     x2="448.16733"
     y2="-40.895283"
     stroke-width="0.999998"
     stroke-dasharray="none"
     stroke="#000000"
     id="line1635" />
  <line
     x1="464.68011"
     y1="-37.337612"
     x2="464.68011"
     y2="-40.895283"
     stroke-width="0.999998"
     stroke-dasharray="0.999998"
     stroke="#000000"
     id="line1637" />
  <line
     x1="450.32336"
     y1="-36.092426"
     x2="450.32336"
     y2="-39.650097"
     stroke-width="0.999998"
     stroke-dasharray="none"
     stroke="#000000"
     id="line1639" />
  <line
     x1="466.83615"
     y1="-36.092426"
     x2="466.83615"
     y2="-39.650097"
     stroke-width="0.999998"
     stroke-dasharray="none"
     stroke="#000000"
     id="line1641" />
  <line
     x1="448.16733"
     y1="-37.337612"
     x2="450.32336"
     y2="-36.092426"
     stroke-width="0.999998"
     stroke-dasharray="none"
     stroke="#000000"
     id="line1643" />
  <line
     x1="448.16733"
     y1="-40.895283"
     x2="450.32336"
     y2="-39.650097"
     stroke-width="0.999998"
     stroke-dasharray="none"
     stroke="#000000"
     id="line1645" />
  <line
     x1="464.68011"
     y1="-37.337612"
     x2="466.83615"
     y2="-36.092426"
     stroke-width="0.999998"
     stroke-dasharray="0.999998"
     stroke="#000000"
     id="line1647" />
  <line
     x1="464.68011"
     y1="-40.895283"
     x2="466.83615"
     y2="-39.650097"
     stroke-width="0.999998"
     stroke-dasharray="none"
     stroke="#000000"
     id="line1649" />
  <line
     x1="448.16733"
     y1="-37.337612"
     x2="464.68011"
     y2="-37.337612"
     stroke-width="0.999998"
     stroke-dasharray="0.999998"
     stroke="#000000"
     id="line1651" />
  <line
     x1="450.32336"
     y1="-36.092426"
     x2="466.83615"
     y2="-36.092426"
     stroke-width="0.999998"
     stroke-dasharray="none"
     stroke="#000000"
     id="line1653" />
  <line
     x1="448.16733"
     y1="-40.895283"
     x2="464.68011"
     y2="-40.895283"
     stroke-width="0.999998"
     stroke-dasharray="none"
     stroke="#000000"
     id="line1655" />
  <line
     x1="450.32336"
     y1="-39.650097"
     x2="466.83615"
     y2="-39.650097"
     stroke-width="0.999998"
     stroke-dasharray="none"
     stroke="#000000"
     id="line1657" />
  <text
     x="378.04349"
     y="289.92526"
     font-family="arial"
     font-size="8.29992px"
     text-anchor="middle"
     fill="#000000"
     id="text1659"
     transform="matrix(0.70699472,-0.70699472,0.70721886,0.70721886,0,0)"
     style="font-style:normal;font-variant:normal;font-weight:normal;font-stretch:normal;font-size:16px;font-family:STIX;-inkscape-font-specification:STIX;stroke-width:0.999998">6x6x256</text>
  <line
     x1="496.474"
     y1="-109.40426"
     x2="496.474"
     y2="32.416557"
     stroke-width="0.999998"
     stroke-dasharray="none"
     stroke="#000000"
     id="line1661" />
  <line
     x1="496.474"
     y1="32.416557"
     x2="498.84503"
     y2="32.416557"
     stroke-width="0.999998"
     stroke-dasharray="none"
     stroke="#000000"
     id="line1663" />
  <line
     x1="498.84503"
     y1="32.416557"
     x2="498.84503"
     y2="-109.40426"
     stroke-width="0.999998"
     stroke-dasharray="none"
     stroke="#000000"
     id="line1665" />
  <line
     x1="498.84503"
     y1="-109.40426"
     x2="496.474"
     y2="-109.40426"
     stroke-width="0.999998"
     stroke-dasharray="none"
     stroke="#000000"
     id="line1667" />
  <text
     x="449.94785"
     y="278.53476"
     font-family="arial"
     font-size="8.29992px"
     text-anchor="middle"
     fill="#000000"
     id="text1669"
     transform="matrix(0.70699472,-0.70699472,0.70721886,0.70721886,0,0)"
     style="font-style:normal;font-variant:normal;font-weight:normal;font-stretch:normal;font-size:16px;font-family:STIX;-inkscape-font-specification:STIX;stroke-width:0.999998">9216</text>
  <line
     x1="528.48291"
     y1="-82.085213"
     x2="528.48291"
     y2="5.0975118"
     stroke-width="0.999998"
     stroke-dasharray="none"
     stroke="#000000"
     id="line1671" />
  <line
     x1="528.48291"
     y1="5.0975118"
     x2="530.85394"
     y2="5.0975118"
     stroke-width="0.999998"
     stroke-dasharray="none"
     stroke="#000000"
     id="line1673" />
  <line
     x1="530.85394"
     y1="5.0975118"
     x2="530.85394"
     y2="-82.085213"
     stroke-width="0.999998"
     stroke-dasharray="none"
     stroke="#000000"
     id="line1675" />
  <line
     x1="530.85394"
     y1="-82.085213"
     x2="528.48291"
     y2="-82.085213"
     stroke-width="0.999998"
     stroke-dasharray="none"
     stroke="#000000"
     id="line1677" />
  <text
     x="453.37656"
     y="320.6553"
     font-family="arial"
     font-size="8.29992px"
     text-anchor="middle"
     fill="#000000"
     id="text1679"
     transform="matrix(0.70699472,-0.70699472,0.70721886,0.70721886,0,0)"
     style="font-style:normal;font-variant:normal;font-weight:normal;font-stretch:normal;font-size:16px;font-family:STIX;-inkscape-font-specification:STIX;stroke-width:0.999998">4096</text>
  <line
     x1="560.49182"
     y1="-82.085213"
     x2="560.49182"
     y2="5.0975118"
     stroke-width="0.999998"
     stroke-dasharray="none"
     stroke="#000000"
     id="line1681" />
  <line
     x1="560.49182"
     y1="5.0975118"
     x2="562.86285"
     y2="5.0975118"
     stroke-width="0.999998"
     stroke-dasharray="none"
     stroke="#000000"
     id="line1683" />
  <line
     x1="562.86285"
     y1="5.0975118"
     x2="562.86285"
     y2="-82.085213"
     stroke-width="0.999998"
     stroke-dasharray="none"
     stroke="#000000"
     id="line1685" />
  <line
     x1="562.86285"
     y1="-82.085213"
     x2="560.49182"
     y2="-82.085213"
     stroke-width="0.999998"
     stroke-dasharray="none"
     stroke="#000000"
     id="line1687" />
  <text
     x="476.01389"
     y="343.28543"
     font-family="arial"
     font-size="8.29992px"
     text-anchor="middle"
     fill="#000000"
     id="text1689"
     transform="matrix(0.70699472,-0.70699472,0.70721886,0.70721886,0,0)"
     style="font-style:normal;font-variant:normal;font-weight:normal;font-stretch:normal;font-size:16px;font-family:STIX;-inkscape-font-specification:STIX;stroke-width:0.999998">4096</text>
  <line
     x1="592.50067"
     y1="-57.200008"
     x2="592.50067"
     y2="-19.787701"
     stroke-width="0.999998"
     stroke-dasharray="none"
     stroke="#000000"
     id="line1691" />
  <line
     x1="592.50061"
     y1="-19.787701"
     x2="594.8717"
     y2="-19.787701"
     stroke-width="0.999998"
     stroke-dasharray="none"
     stroke="#000000"
     id="line1693" />
  <line
     x1="594.8717"
     y1="-19.787701"
     x2="594.8717"
     y2="-57.200008"
     stroke-width="0.999998"
     stroke-dasharray="none"
     stroke="#000000"
     id="line1695" />
  <line
     x1="594.8717"
     y1="-57.200008"
     x2="592.50067"
     y2="-57.200008"
     stroke-width="0.999998"
     stroke-dasharray="none"
     stroke="#000000"
     id="line1697" />
  <text
     x="73.933411"
     y="598.88812"
     font-family="arial"
     font-size="8.29992px"
     text-anchor="middle"
     fill="#000000"
     id="text1699"
     transform="matrix(0,-0.99984152,1.0001585,0,0,0)"
     style="font-style:normal;font-variant:normal;font-weight:normal;font-stretch:normal;font-size:16px;font-family:STIX;-inkscape-font-specification:STIX;stroke-width:0.999998">1000</text>
  <line
     x1="1.2850857"
     y1="-36.374073"
     x2="1.2850857"
     y2="-42.896473"
     stroke-width="0.999998"
     stroke-dasharray="none"
     stroke="#0000ff"
     id="line1701" />
  <line
     x1="2.4309902"
     y1="-36.374073"
     x2="2.4309902"
     y2="-42.896473"
     stroke-width="0.999998"
     stroke-dasharray="0.999998"
     stroke="#0000ff"
     id="line1703" />
  <line
     x1="5.2378254"
     y1="-34.091236"
     x2="5.2378254"
     y2="-40.613636"
     stroke-width="0.999998"
     stroke-dasharray="none"
     stroke="#0000ff"
     id="line1705" />
  <line
     x1="6.3837337"
     y1="-34.091236"
     x2="6.3837337"
     y2="-40.613636"
     stroke-width="0.999998"
     stroke-dasharray="none"
     stroke="#0000ff"
     id="line1707" />
  <line
     x1="1.2850857"
     y1="-36.374073"
     x2="5.2378254"
     y2="-34.091236"
     stroke-width="0.999998"
     stroke-dasharray="none"
     stroke="#0000ff"
     id="line1709" />
  <line
     x1="1.2850857"
     y1="-42.896473"
     x2="5.2378254"
     y2="-40.613636"
     stroke-width="0.999998"
     stroke-dasharray="none"
     stroke="#0000ff"
     id="line1711" />
  <line
     x1="2.4309902"
     y1="-36.374073"
     x2="6.3837337"
     y2="-34.091236"
     stroke-width="0.999998"
     stroke-dasharray="0.999998"
     stroke="#0000ff"
     id="line1713" />
  <line
     x1="2.4309902"
     y1="-42.896473"
     x2="6.3837337"
     y2="-40.613636"
     stroke-width="0.999998"
     stroke-dasharray="none"
     stroke="#0000ff"
     id="line1715" />
  <line
     x1="1.2850857"
     y1="-36.374073"
     x2="2.4309902"
     y2="-36.374073"
     stroke-width="0.999998"
     stroke-dasharray="0.999998"
     stroke="#0000ff"
     id="line1717" />
  <line
     x1="5.2378254"
     y1="-34.091236"
     x2="6.3837337"
     y2="-34.091236"
     stroke-width="0.999998"
     stroke-dasharray="none"
     stroke="#0000ff"
     id="line1719" />
  <line
     x1="1.2850857"
     y1="-42.896473"
     x2="2.4309902"
     y2="-42.896473"
     stroke-width="0.999998"
     stroke-dasharray="none"
     stroke="#0000ff"
     id="line1721" />
  <line
     x1="5.2378254"
     y1="-40.613636"
     x2="6.3837337"
     y2="-40.613636"
     stroke-width="0.999998"
     stroke-dasharray="none"
     stroke="#0000ff"
     id="line1723" />
  <line
     x1="2.4309902"
     y1="-42.896473"
     x2="77.794868"
     y2="-49.500401"
     stroke-width="0.999998"
     stroke-dasharray="none"
     stroke="#0000ff"
     id="line1725" />
  <line
     x1="6.3837337"
     y1="-34.091236"
     x2="77.794868"
     y2="-49.500401"
     stroke-width="0.999998"
     stroke-dasharray="none"
     stroke="#0000ff"
     id="line1727" />
  <rect
     style="fill:#ffffff;fill-opacity:1;stroke:none;stroke-width:1.88976;stroke-linecap:round;stroke-miterlimit:10;paint-order:stroke fill markers"
     id="rect2021"
     width="78.37606"
     height="85.219925"
     x="2.6923287"
     y="-26.684772"
     ry="3.1366384" />
  <text
     x="19.227526"
     y="37.499264"
     font-family="arial"
     font-size="8.29992px"
     text-anchor="middle"
     fill="#000000"
     id="text1729"
     transform="matrix(0.70699472,-0.70699472,0.70721886,0.70721886,0,0)"
     style="font-style:normal;font-variant:normal;font-weight:normal;font-stretch:normal;font-size:16px;font-family:STIX;-inkscape-font-specification:STIX;stroke-width:0.999998"><tspan
       sodipodi:role="line"
       id="tspan2017"
       x="19.227526"
       y="37.499264">conv11x11, 96</tspan><tspan
       sodipodi:role="line"
       id="tspan2019"
       x="19.227526"
       y="57.499264">stride (4, 4)</tspan></text>
  <line
     x1="91.903046"
     y1="-39.694569"
     x2="133.84831"
     y2="-43.897068"
     stroke-width="0.999998"
     stroke-dasharray="none"
     stroke="#0000ff"
     id="line1757" />
  <line
     x1="92.981064"
     y1="-37.29314"
     x2="133.84831"
     y2="-43.897068"
     stroke-width="0.999998"
     stroke-dasharray="none"
     stroke="#0000ff"
     id="line1759" />
  <text
     x="72.424454"
     y="75.028305"
     font-family="arial"
     font-size="8.29992px"
     text-anchor="middle"
     fill="#000000"
     id="text1761"
     transform="matrix(0.70699472,-0.70699472,0.70721886,0.70721886,0,0)"
     style="font-style:normal;font-variant:normal;font-weight:normal;font-stretch:normal;font-size:16px;font-family:STIX;-inkscape-font-specification:STIX;stroke-width:0.999998"><tspan
       sodipodi:role="line"
       id="tspan2013"
       x="72.424454"
       y="75.028305">maxpool3x3</tspan><tspan
       sodipodi:role="line"
       id="tspan2015"
       x="72.424454"
       y="95.028305">stride (2, 2)</tspan></text>
  <line
     x1="136.27385"
     y1="-37.530315"
     x2="136.27385"
     y2="-40.495045"
     stroke-width="0.999998"
     stroke-dasharray="none"
     stroke="#0000ff"
     id="line1765" />
  <line
     x1="145.4411"
     y1="-37.530315"
     x2="145.4411"
     y2="-40.495045"
     stroke-width="0.999998"
     stroke-dasharray="0.999998"
     stroke="#0000ff"
     id="line1767" />
  <line
     x1="138.07056"
     y1="-36.492664"
     x2="138.07056"
     y2="-39.457394"
     stroke-width="0.999998"
     stroke-dasharray="none"
     stroke="#0000ff"
     id="line1769" />
  <line
     x1="147.23781"
     y1="-36.492664"
     x2="147.23781"
     y2="-39.457394"
     stroke-width="0.999998"
     stroke-dasharray="none"
     stroke="#0000ff"
     id="line1771" />
  <line
     x1="136.27385"
     y1="-37.530315"
     x2="138.07056"
     y2="-36.492664"
     stroke-width="0.999998"
     stroke-dasharray="none"
     stroke="#0000ff"
     id="line1773" />
  <line
     x1="136.27385"
     y1="-40.495045"
     x2="138.07056"
     y2="-39.457394"
     stroke-width="0.999998"
     stroke-dasharray="none"
     stroke="#0000ff"
     id="line1775" />
  <line
     x1="145.4411"
     y1="-37.530315"
     x2="147.23781"
     y2="-36.492664"
     stroke-width="0.999998"
     stroke-dasharray="0.999998"
     stroke="#0000ff"
     id="line1777" />
  <line
     x1="145.4411"
     y1="-40.495045"
     x2="147.23781"
     y2="-39.457394"
     stroke-width="0.999998"
     stroke-dasharray="none"
     stroke="#0000ff"
     id="line1779" />
  <line
     x1="136.27385"
     y1="-37.530315"
     x2="145.4411"
     y2="-37.530315"
     stroke-width="0.999998"
     stroke-dasharray="0.999998"
     stroke="#0000ff"
     id="line1781" />
  <line
     x1="138.07056"
     y1="-36.492664"
     x2="147.23781"
     y2="-36.492664"
     stroke-width="0.999998"
     stroke-dasharray="none"
     stroke="#0000ff"
     id="line1783" />
  <line
     x1="136.27385"
     y1="-40.495045"
     x2="145.4411"
     y2="-40.495045"
     stroke-width="0.999998"
     stroke-dasharray="none"
     stroke="#0000ff"
     id="line1785" />
  <line
     x1="138.07056"
     y1="-39.457394"
     x2="147.23781"
     y2="-39.457394"
     stroke-width="0.999998"
     stroke-dasharray="none"
     stroke="#0000ff"
     id="line1787" />
  <line
     x1="145.4411"
     y1="-40.495045"
     x2="182.35562"
     y2="-43.897068"
     stroke-width="0.999998"
     stroke-dasharray="none"
     stroke="#0000ff"
     id="line1789" />
  <line
     x1="147.23781"
     y1="-36.492664"
     x2="182.35562"
     y2="-43.897068"
     stroke-width="0.999998"
     stroke-dasharray="none"
     stroke="#0000ff"
     id="line1791" />
  <text
     x="102.76978"
     y="109.38671"
     font-family="arial"
     font-size="8.29992px"
     text-anchor="middle"
     fill="#000000"
     id="text1793"
     transform="matrix(0.70699472,-0.70699472,0.70721886,0.70721886,0,0)"
     style="font-style:normal;font-variant:normal;font-weight:normal;font-stretch:normal;font-size:16px;font-family:STIX;-inkscape-font-specification:STIX;stroke-width:0.999998"><tspan
       sodipodi:role="line"
       id="tspan2009"
       x="102.76978"
       y="109.38671">conv5x5, 256</tspan><tspan
       sodipodi:role="line"
       id="tspan2011"
       x="102.76978"
       y="129.38672">stride (1, 1)</tspan></text>
  <line
     x1="184.78116"
     y1="-37.91573"
     x2="184.78116"
     y2="-39.694569"
     stroke-width="0.999998"
     stroke-dasharray="none"
     stroke="#0000ff"
     id="line1797" />
  <line
     x1="201.29396"
     y1="-37.91573"
     x2="201.29396"
     y2="-39.694569"
     stroke-width="0.999998"
     stroke-dasharray="0.999998"
     stroke="#0000ff"
     id="line1799" />
  <line
     x1="185.85918"
     y1="-37.29314"
     x2="185.85918"
     y2="-39.071972"
     stroke-width="0.999998"
     stroke-dasharray="none"
     stroke="#0000ff"
     id="line1801" />
  <line
     x1="202.37198"
     y1="-37.29314"
     x2="202.37198"
     y2="-39.071972"
     stroke-width="0.999998"
     stroke-dasharray="none"
     stroke="#0000ff"
     id="line1803" />
  <line
     x1="184.78116"
     y1="-37.91573"
     x2="185.85918"
     y2="-37.29314"
     stroke-width="0.999998"
     stroke-dasharray="none"
     stroke="#0000ff"
     id="line1805" />
  <line
     x1="184.78116"
     y1="-39.694569"
     x2="185.85918"
     y2="-39.071972"
     stroke-width="0.999998"
     stroke-dasharray="none"
     stroke="#0000ff"
     id="line1807" />
  <line
     x1="201.29396"
     y1="-37.91573"
     x2="202.37198"
     y2="-37.29314"
     stroke-width="0.999998"
     stroke-dasharray="0.999998"
     stroke="#0000ff"
     id="line1809" />
  <line
     x1="201.29396"
     y1="-39.694569"
     x2="202.37198"
     y2="-39.071972"
     stroke-width="0.999998"
     stroke-dasharray="none"
     stroke="#0000ff"
     id="line1811" />
  <line
     x1="184.78116"
     y1="-37.91573"
     x2="201.29396"
     y2="-37.91573"
     stroke-width="0.999998"
     stroke-dasharray="0.999998"
     stroke="#0000ff"
     id="line1813" />
  <line
     x1="185.85918"
     y1="-37.29314"
     x2="202.37198"
     y2="-37.29314"
     stroke-width="0.999998"
     stroke-dasharray="none"
     stroke="#0000ff"
     id="line1815" />
  <line
     x1="184.78116"
     y1="-39.694569"
     x2="201.29396"
     y2="-39.694569"
     stroke-width="0.999998"
     stroke-dasharray="none"
     stroke="#0000ff"
     id="line1817" />
  <line
     x1="185.85918"
     y1="-39.071972"
     x2="202.37198"
     y2="-39.071972"
     stroke-width="0.999998"
     stroke-dasharray="none"
     stroke="#0000ff"
     id="line1819" />
  <line
     x1="201.29396"
     y1="-39.694569"
     x2="236.95078"
     y2="-41.095402"
     stroke-width="0.999998"
     stroke-dasharray="none"
     stroke="#0000ff"
     id="line1821" />
  <line
     x1="202.37198"
     y1="-37.29314"
     x2="236.95078"
     y2="-41.095402"
     stroke-width="0.999998"
     stroke-dasharray="none"
     stroke="#0000ff"
     id="line1823" />
  <text
     x="148.13794"
     y="146.90297"
     font-family="arial"
     font-size="8.29992px"
     text-anchor="middle"
     fill="#000000"
     id="text1825"
     transform="matrix(0.70699472,-0.70699472,0.70721886,0.70721886,0,0)"
     style="font-style:normal;font-variant:normal;font-weight:normal;font-stretch:normal;font-size:16px;font-family:STIX;-inkscape-font-specification:STIX;stroke-width:0.999998"><tspan
       sodipodi:role="line"
       id="tspan2005"
       x="148.13794"
       y="146.90297">maxpool3x3</tspan><tspan
       sodipodi:role="line"
       id="tspan2007"
       x="148.13794"
       y="166.90297">stride (2, 2)</tspan></text>
  <line
     x1="238.11862"
     y1="-37.91573"
     x2="238.11862"
     y2="-39.694569"
     stroke-width="0.999998"
     stroke-dasharray="none"
     stroke="#0000ff"
     id="line1829" />
  <line
     x1="254.63144"
     y1="-37.91573"
     x2="254.63144"
     y2="-39.694569"
     stroke-width="0.999998"
     stroke-dasharray="0.999998"
     stroke="#0000ff"
     id="line1831" />
  <line
     x1="239.19662"
     y1="-37.29314"
     x2="239.19662"
     y2="-39.071972"
     stroke-width="0.999998"
     stroke-dasharray="none"
     stroke="#0000ff"
     id="line1833" />
  <line
     x1="255.70944"
     y1="-37.29314"
     x2="255.70944"
     y2="-39.071972"
     stroke-width="0.999998"
     stroke-dasharray="none"
     stroke="#0000ff"
     id="line1835" />
  <line
     x1="238.11862"
     y1="-37.91573"
     x2="239.19662"
     y2="-37.29314"
     stroke-width="0.999998"
     stroke-dasharray="none"
     stroke="#0000ff"
     id="line1837" />
  <line
     x1="238.11862"
     y1="-39.694569"
     x2="239.19662"
     y2="-39.071972"
     stroke-width="0.999998"
     stroke-dasharray="none"
     stroke="#0000ff"
     id="line1839" />
  <line
     x1="254.63144"
     y1="-37.91573"
     x2="255.70944"
     y2="-37.29314"
     stroke-width="0.999998"
     stroke-dasharray="0.999998"
     stroke="#0000ff"
     id="line1841" />
  <line
     x1="254.63144"
     y1="-39.694569"
     x2="255.70944"
     y2="-39.071972"
     stroke-width="0.999998"
     stroke-dasharray="none"
     stroke="#0000ff"
     id="line1843" />
  <line
     x1="238.11862"
     y1="-37.91573"
     x2="254.63144"
     y2="-37.91573"
     stroke-width="0.999998"
     stroke-dasharray="0.999998"
     stroke="#0000ff"
     id="line1845" />
  <line
     x1="239.19662"
     y1="-37.29314"
     x2="255.70944"
     y2="-37.29314"
     stroke-width="0.999998"
     stroke-dasharray="none"
     stroke="#0000ff"
     id="line1847" />
  <line
     x1="238.11862"
     y1="-39.694569"
     x2="254.63144"
     y2="-39.694569"
     stroke-width="0.999998"
     stroke-dasharray="none"
     stroke="#0000ff"
     id="line1849" />
  <line
     x1="239.19662"
     y1="-39.071972"
     x2="255.70944"
     y2="-39.071972"
     stroke-width="0.999998"
     stroke-dasharray="none"
     stroke="#0000ff"
     id="line1851" />
  <line
     x1="254.63144"
     y1="-39.694569"
     x2="287.77286"
     y2="-41.095402"
     stroke-width="0.999998"
     stroke-dasharray="none"
     stroke="#0000ff"
     id="line1853" />
  <line
     x1="255.70944"
     y1="-37.29314"
     x2="287.77286"
     y2="-41.095402"
     stroke-width="0.999998"
     stroke-dasharray="none"
     stroke="#0000ff"
     id="line1855" />
  <text
     x="180.21638"
     y="182.94594"
     font-family="arial"
     font-size="8.29992px"
     text-anchor="middle"
     fill="#000000"
     id="text1857"
     transform="matrix(0.70699472,-0.70699472,0.70721886,0.70721886,0,0)"
     style="font-style:normal;font-variant:normal;font-weight:normal;font-stretch:normal;font-size:16px;font-family:STIX;-inkscape-font-specification:STIX;stroke-width:0.999998"><tspan
       sodipodi:role="line"
       id="tspan2001"
       x="180.21638"
       y="182.94594">conv3x3, 384</tspan><tspan
       sodipodi:role="line"
       id="tspan2003"
       x="180.21638"
       y="202.94594">stride (1, 1)</tspan></text>
  <line
     x1="288.94073"
     y1="-37.91573"
     x2="288.94073"
     y2="-39.694569"
     stroke-width="0.999998"
     stroke-dasharray="none"
     stroke="#0000ff"
     id="line1861" />
  <line
     x1="310.00156"
     y1="-37.91573"
     x2="310.00156"
     y2="-39.694569"
     stroke-width="0.999998"
     stroke-dasharray="0.999998"
     stroke="#0000ff"
     id="line1863" />
  <line
     x1="290.01871"
     y1="-37.29314"
     x2="290.01871"
     y2="-39.071972"
     stroke-width="0.999998"
     stroke-dasharray="none"
     stroke="#0000ff"
     id="line1865" />
  <line
     x1="311.07959"
     y1="-37.29314"
     x2="311.07959"
     y2="-39.071972"
     stroke-width="0.999998"
     stroke-dasharray="none"
     stroke="#0000ff"
     id="line1867" />
  <line
     x1="288.94073"
     y1="-37.91573"
     x2="290.01871"
     y2="-37.29314"
     stroke-width="0.999998"
     stroke-dasharray="none"
     stroke="#0000ff"
     id="line1869" />
  <line
     x1="288.94073"
     y1="-39.694569"
     x2="290.01871"
     y2="-39.071972"
     stroke-width="0.999998"
     stroke-dasharray="none"
     stroke="#0000ff"
     id="line1871" />
  <line
     x1="310.00156"
     y1="-37.91573"
     x2="311.07959"
     y2="-37.29314"
     stroke-width="0.999998"
     stroke-dasharray="0.999998"
     stroke="#0000ff"
     id="line1873" />
  <line
     x1="310.00156"
     y1="-39.694569"
     x2="311.07959"
     y2="-39.071972"
     stroke-width="0.999998"
     stroke-dasharray="none"
     stroke="#0000ff"
     id="line1875" />
  <line
     x1="288.94073"
     y1="-37.91573"
     x2="310.00156"
     y2="-37.91573"
     stroke-width="0.999998"
     stroke-dasharray="0.999998"
     stroke="#0000ff"
     id="line1877" />
  <line
     x1="290.01871"
     y1="-37.29314"
     x2="311.07959"
     y2="-37.29314"
     stroke-width="0.999998"
     stroke-dasharray="none"
     stroke="#0000ff"
     id="line1879" />
  <line
     x1="288.94073"
     y1="-39.694569"
     x2="310.00156"
     y2="-39.694569"
     stroke-width="0.999998"
     stroke-dasharray="none"
     stroke="#0000ff"
     id="line1881" />
  <line
     x1="290.01871"
     y1="-39.071972"
     x2="311.07959"
     y2="-39.071972"
     stroke-width="0.999998"
     stroke-dasharray="none"
     stroke="#0000ff"
     id="line1883" />
  <line
     x1="310.00156"
     y1="-39.694569"
     x2="343.14294"
     y2="-41.095402"
     stroke-width="0.999998"
     stroke-dasharray="none"
     stroke="#0000ff"
     id="line1885" />
  <line
     x1="311.07959"
     y1="-37.29314"
     x2="343.14294"
     y2="-41.095402"
     stroke-width="0.999998"
     stroke-dasharray="none"
     stroke="#0000ff"
     id="line1887" />
  <text
     x="219.37518"
     y="222.09232"
     font-family="arial"
     font-size="8.29992px"
     text-anchor="middle"
     fill="#000000"
     id="text1889"
     transform="matrix(0.70699472,-0.70699472,0.70721886,0.70721886,0,0)"
     style="font-style:normal;font-variant:normal;font-weight:normal;font-stretch:normal;font-size:16px;font-family:STIX;-inkscape-font-specification:STIX;stroke-width:0.999998"><tspan
       sodipodi:role="line"
       id="tspan1997"
       x="219.37518"
       y="222.09232">conv3x3, 384</tspan><tspan
       sodipodi:role="line"
       id="tspan1999"
       x="219.37518"
       y="242.09232">stride (1, 1)</tspan></text>
  <line
     x1="344.31082"
     y1="-37.91573"
     x2="344.31082"
     y2="-39.694569"
     stroke-width="0.999998"
     stroke-dasharray="none"
     stroke="#0000ff"
     id="line1893" />
  <line
     x1="365.37167"
     y1="-37.91573"
     x2="365.37167"
     y2="-39.694569"
     stroke-width="0.999998"
     stroke-dasharray="0.999998"
     stroke="#0000ff"
     id="line1895" />
  <line
     x1="345.38882"
     y1="-37.29314"
     x2="345.38882"
     y2="-39.071972"
     stroke-width="0.999998"
     stroke-dasharray="none"
     stroke="#0000ff"
     id="line1897" />
  <line
     x1="366.44968"
     y1="-37.29314"
     x2="366.44968"
     y2="-39.071972"
     stroke-width="0.999998"
     stroke-dasharray="none"
     stroke="#0000ff"
     id="line1899" />
  <line
     x1="344.31082"
     y1="-37.91573"
     x2="345.38882"
     y2="-37.29314"
     stroke-width="0.999998"
     stroke-dasharray="none"
     stroke="#0000ff"
     id="line1901" />
  <line
     x1="344.31082"
     y1="-39.694569"
     x2="345.38882"
     y2="-39.071972"
     stroke-width="0.999998"
     stroke-dasharray="none"
     stroke="#0000ff"
     id="line1903" />
  <line
     x1="365.37167"
     y1="-37.91573"
     x2="366.44968"
     y2="-37.29314"
     stroke-width="0.999998"
     stroke-dasharray="0.999998"
     stroke="#0000ff"
     id="line1905" />
  <line
     x1="365.37167"
     y1="-39.694569"
     x2="366.44968"
     y2="-39.071972"
     stroke-width="0.999998"
     stroke-dasharray="none"
     stroke="#0000ff"
     id="line1907" />
  <line
     x1="344.31082"
     y1="-37.91573"
     x2="365.37167"
     y2="-37.91573"
     stroke-width="0.999998"
     stroke-dasharray="0.999998"
     stroke="#0000ff"
     id="line1909" />
  <line
     x1="345.38882"
     y1="-37.29314"
     x2="366.44968"
     y2="-37.29314"
     stroke-width="0.999998"
     stroke-dasharray="none"
     stroke="#0000ff"
     id="line1911" />
  <line
     x1="344.31082"
     y1="-39.694569"
     x2="365.37167"
     y2="-39.694569"
     stroke-width="0.999998"
     stroke-dasharray="none"
     stroke="#0000ff"
     id="line1913" />
  <line
     x1="345.38882"
     y1="-39.071972"
     x2="366.44968"
     y2="-39.071972"
     stroke-width="0.999998"
     stroke-dasharray="none"
     stroke="#0000ff"
     id="line1915" />
  <line
     x1="365.37167"
     y1="-39.694569"
     x2="398.51309"
     y2="-41.095402"
     stroke-width="0.999998"
     stroke-dasharray="none"
     stroke="#0000ff"
     id="line1917" />
  <line
     x1="366.44968"
     y1="-37.29314"
     x2="398.51309"
     y2="-41.095402"
     stroke-width="0.999998"
     stroke-dasharray="none"
     stroke="#0000ff"
     id="line1919" />
  <text
     x="258.4379"
     y="261.19067"
     font-family="arial"
     font-size="8.29992px"
     text-anchor="middle"
     fill="#000000"
     id="text1921"
     transform="matrix(0.70699472,-0.70699472,0.70721886,0.70721886,0,0)"
     style="font-style:normal;font-variant:normal;font-weight:normal;font-stretch:normal;font-size:16px;font-family:STIX;-inkscape-font-specification:STIX;stroke-width:0.999998"><tspan
       sodipodi:role="line"
       id="tspan1993"
       x="258.4379"
       y="261.19067">conv3x3, 256</tspan><tspan
       sodipodi:role="line"
       id="tspan1995"
       x="258.4379"
       y="281.19067">stride (1, 1)</tspan></text>
  <text
     x="179.92761"
     y="310.75912"
     font-family="arial"
     font-size="8.29992px"
     text-anchor="middle"
     fill="#000000"
     id="text1923"
     transform="matrix(0.70699472,-0.70699472,0.70721886,0.70721886,0,0)"
     style="font-style:normal;font-variant:normal;font-weight:normal;font-stretch:normal;font-size:16px;font-family:STIX;-inkscape-font-specification:STIX;stroke-width:0.999998" />
  <line
     x1="399.68094"
     y1="-37.91573"
     x2="399.68094"
     y2="-39.694569"
     stroke-width="0.999998"
     stroke-dasharray="none"
     stroke="#0000ff"
     id="line1925" />
  <line
     x1="416.19373"
     y1="-37.91573"
     x2="416.19373"
     y2="-39.694569"
     stroke-width="0.999998"
     stroke-dasharray="0.999998"
     stroke="#0000ff"
     id="line1927" />
  <line
     x1="400.75897"
     y1="-37.29314"
     x2="400.75897"
     y2="-39.071972"
     stroke-width="0.999998"
     stroke-dasharray="none"
     stroke="#0000ff"
     id="line1929" />
  <line
     x1="417.27176"
     y1="-37.29314"
     x2="417.27176"
     y2="-39.071972"
     stroke-width="0.999998"
     stroke-dasharray="none"
     stroke="#0000ff"
     id="line1931" />
  <line
     x1="399.68094"
     y1="-37.91573"
     x2="400.75897"
     y2="-37.29314"
     stroke-width="0.999998"
     stroke-dasharray="none"
     stroke="#0000ff"
     id="line1933" />
  <line
     x1="399.68094"
     y1="-39.694569"
     x2="400.75897"
     y2="-39.071972"
     stroke-width="0.999998"
     stroke-dasharray="none"
     stroke="#0000ff"
     id="line1935" />
  <line
     x1="416.19373"
     y1="-37.91573"
     x2="417.27176"
     y2="-37.29314"
     stroke-width="0.999998"
     stroke-dasharray="0.999998"
     stroke="#0000ff"
     id="line1937" />
  <line
     x1="416.19373"
     y1="-39.694569"
     x2="417.27176"
     y2="-39.071972"
     stroke-width="0.999998"
     stroke-dasharray="none"
     stroke="#0000ff"
     id="line1939" />
  <line
     x1="399.68094"
     y1="-37.91573"
     x2="416.19373"
     y2="-37.91573"
     stroke-width="0.999998"
     stroke-dasharray="0.999998"
     stroke="#0000ff"
     id="line1941" />
  <line
     x1="400.75897"
     y1="-37.29314"
     x2="417.27176"
     y2="-37.29314"
     stroke-width="0.999998"
     stroke-dasharray="none"
     stroke="#0000ff"
     id="line1943" />
  <line
     x1="399.68094"
     y1="-39.694569"
     x2="416.19373"
     y2="-39.694569"
     stroke-width="0.999998"
     stroke-dasharray="none"
     stroke="#0000ff"
     id="line1945" />
  <line
     x1="400.75897"
     y1="-39.071972"
     x2="417.27176"
     y2="-39.071972"
     stroke-width="0.999998"
     stroke-dasharray="none"
     stroke="#0000ff"
     id="line1947" />
  <line
     x1="416.19373"
     y1="-39.694569"
     x2="448.7063"
     y2="-39.694569"
     stroke-width="0.999998"
     stroke-dasharray="none"
     stroke="#0000ff"
     id="line1949" />
  <line
     x1="417.27176"
     y1="-37.29314"
     x2="448.7063"
     y2="-39.694569"
     stroke-width="0.999998"
     stroke-dasharray="none"
     stroke="#0000ff"
     id="line1951" />
  <text
     x="298.10739"
     y="297.29037"
     font-family="arial"
     font-size="8.29992px"
     text-anchor="middle"
     fill="#000000"
     id="text1953"
     transform="matrix(0.70699472,-0.70699472,0.70721886,0.70721886,0,0)"
     style="font-style:normal;font-variant:normal;font-weight:normal;font-stretch:normal;font-size:16px;font-family:STIX;-inkscape-font-specification:STIX;stroke-width:0.999998"><tspan
       sodipodi:role="line"
       id="tspan1989"
       x="298.10739"
       y="297.29037">maxpool3x3</tspan><tspan
       sodipodi:role="line"
       id="tspan1991"
       x="298.10739"
       y="317.29037">stride (2, 2)</tspan></text>
  <text
     x="312.78415"
     y="308.87903"
     font-family="arial"
     font-size="8.29992px"
     text-anchor="middle"
     fill="#000000"
     id="text1955"
     transform="matrix(0.70699472,-0.70699472,0.70721886,0.70721886,0,0)"
     style="font-style:normal;font-variant:normal;font-weight:normal;font-stretch:normal;font-size:16px;font-family:STIX;-inkscape-font-specification:STIX;stroke-width:0.999998" />
  <text
     x="-41.709946"
     y="486.96271"
     font-family="arial"
     font-size="8.29992px"
     text-anchor="middle"
     fill="#000000"
     id="text1957"
     transform="matrix(0,-0.99984152,1.0001585,0,0,0)"
     style="font-style:normal;font-variant:normal;font-weight:normal;font-stretch:normal;font-size:16px;font-family:STIX;-inkscape-font-specification:STIX;stroke-width:0.999998">flatten</text>
  <line
     x1="498.84503"
     y1="-109.40426"
     x2="528.48291"
     y2="-60.289539"
     stroke-width="0.999998"
     stroke-dasharray="2"
     stroke="#0000ff"
     id="line1959" />
  <line
     x1="498.84503"
     y1="32.416557"
     x2="528.48291"
     y2="-60.289539"
     stroke-width="0.999998"
     stroke-dasharray="2"
     stroke="#0000ff"
     id="line1961" />
  <text
     x="334.03531"
     y="397.71399"
     font-family="arial"
     font-size="8.29992px"
     text-anchor="middle"
     fill="#000000"
     id="text1963"
     transform="matrix(0.70699472,-0.70699472,0.70721886,0.70721886,0,0)"
     style="font-style:normal;font-variant:normal;font-weight:normal;font-stretch:normal;font-size:16px;font-family:STIX;-inkscape-font-specification:STIX;stroke-width:0.999998">dense</text>
  <line
     x1="530.85394"
     y1="-82.085213"
     x2="560.49182"
     y2="-60.289539"
     stroke-width="0.999998"
     stroke-dasharray="2"
     stroke="#0000ff"
     id="line1965" />
  <line
     x1="530.85394"
     y1="5.0975118"
     x2="560.49182"
     y2="-60.289539"
     stroke-width="0.999998"
     stroke-dasharray="2"
     stroke="#0000ff"
     id="line1967" />
  <text
     x="371.58884"
     y="405.11072"
     font-family="arial"
     font-size="8.29992px"
     text-anchor="middle"
     fill="#000000"
     id="text1969"
     transform="matrix(0.70699472,-0.70699472,0.70721886,0.70721886,0,0)"
     style="font-style:normal;font-variant:normal;font-weight:normal;font-stretch:normal;font-size:16px;font-family:STIX;-inkscape-font-specification:STIX;stroke-width:0.999998">dense</text>
  <line
     x1="562.86285"
     y1="-82.085213"
     x2="592.50067"
     y2="-47.846928"
     stroke-width="0.999998"
     stroke-dasharray="2"
     stroke="#0000ff"
     id="line1971" />
  <line
     x1="562.86285"
     y1="5.0975118"
     x2="592.50067"
     y2="-47.846928"
     stroke-width="0.999998"
     stroke-dasharray="2"
     stroke="#0000ff"
     id="line1973" />
  <text
     x="398.63043"
     y="423.65982"
     font-family="arial"
     font-size="8.29992px"
     text-anchor="middle"
     fill="#000000"
     id="text1975"
     transform="matrix(0.70699472,-0.70699472,0.70721886,0.70721886,0,0)"
     style="font-style:normal;font-variant:normal;font-weight:normal;font-stretch:normal;font-size:16px;font-family:STIX;-inkscape-font-specification:STIX;stroke-width:0.999998">dense</text>
  <line
     x1="72.853943"
     y1="-27.894955"
     x2="72.853943"
     y2="-60.506939"
     stroke-width="0.999998"
     stroke-dasharray="none"
     stroke="#000000"
     id="line1453" />
  <line
     x1="82.021202"
     y1="-27.894955"
     x2="82.021202"
     y2="-60.506939"
     stroke-width="0.999998"
     stroke-dasharray="0.999998"
     stroke="#000000"
     id="line1455" />
  <line
     x1="92.617645"
     y1="-16.480766"
     x2="92.617645"
     y2="-49.092747"
     stroke-width="0.999998"
     stroke-dasharray="none"
     stroke="#000000"
     id="line1457" />
  <line
     x1="101.7849"
     y1="-16.480766"
     x2="101.7849"
     y2="-49.092747"
     stroke-width="0.999998"
     stroke-dasharray="none"
     stroke="#000000"
     id="line1459" />
  <line
     x1="72.853943"
     y1="-27.894955"
     x2="92.617645"
     y2="-16.480766"
     stroke-width="0.999998"
     stroke-dasharray="none"
     stroke="#000000"
     id="line1461" />
  <line
     x1="72.853943"
     y1="-60.506939"
     x2="92.617645"
     y2="-49.092747"
     stroke-width="0.999998"
     stroke-dasharray="none"
     stroke="#000000"
     id="line1463" />
  <line
     x1="82.021202"
     y1="-27.894955"
     x2="101.7849"
     y2="-16.480766"
     stroke-width="0.999998"
     stroke-dasharray="0.999998"
     stroke="#000000"
     id="line1465" />
  <line
     x1="82.021202"
     y1="-60.506939"
     x2="101.7849"
     y2="-49.092747"
     stroke-width="0.999998"
     stroke-dasharray="none"
     stroke="#000000"
     id="line1467" />
  <line
     x1="72.853943"
     y1="-27.894955"
     x2="82.021202"
     y2="-27.894955"
     stroke-width="0.999998"
     stroke-dasharray="0.999998"
     stroke="#000000"
     id="line1469" />
  <line
     x1="92.617645"
     y1="-16.480766"
     x2="101.7849"
     y2="-16.480766"
     stroke-width="0.999998"
     stroke-dasharray="none"
     stroke="#000000"
     id="line1471" />
  <line
     x1="72.853943"
     y1="-60.506939"
     x2="82.021202"
     y2="-60.506939"
     stroke-width="0.999998"
     stroke-dasharray="none"
     stroke="#000000"
     id="line1473" />
  <line
     x1="92.617645"
     y1="-49.092747"
     x2="101.7849"
     y2="-49.092747"
     stroke-width="0.999998"
     stroke-dasharray="none"
     stroke="#000000"
     id="line1475" />
  <line
     x1="82.735786"
     y1="-37.91573"
     x2="82.735786"
     y2="-39.694569"
     stroke-width="0.999998"
     stroke-dasharray="none"
     stroke="#0000ff"
     id="line1733" />
  <line
     x1="91.903046"
     y1="-37.91573"
     x2="91.903046"
     y2="-39.694569"
     stroke-width="0.999998"
     stroke-dasharray="0.999998"
     stroke="#0000ff"
     id="line1735" />
  <line
     x1="83.813812"
     y1="-37.29314"
     x2="83.813812"
     y2="-39.071972"
     stroke-width="0.999998"
     stroke-dasharray="none"
     stroke="#0000ff"
     id="line1737" />
  <line
     x1="92.981064"
     y1="-37.29314"
     x2="92.981064"
     y2="-39.071972"
     stroke-width="0.999998"
     stroke-dasharray="none"
     stroke="#0000ff"
     id="line1739" />
  <line
     x1="82.735786"
     y1="-37.91573"
     x2="83.813812"
     y2="-37.29314"
     stroke-width="0.999998"
     stroke-dasharray="none"
     stroke="#0000ff"
     id="line1741" />
  <line
     x1="82.735786"
     y1="-39.694569"
     x2="83.813812"
     y2="-39.071972"
     stroke-width="0.999998"
     stroke-dasharray="none"
     stroke="#0000ff"
     id="line1743" />
  <line
     x1="91.903046"
     y1="-37.91573"
     x2="92.981064"
     y2="-37.29314"
     stroke-width="0.999998"
     stroke-dasharray="0.999998"
     stroke="#0000ff"
     id="line1745" />
  <line
     x1="91.903046"
     y1="-39.694569"
     x2="92.981064"
     y2="-39.071972"
     stroke-width="0.999998"
     stroke-dasharray="none"
     stroke="#0000ff"
     id="line1747" />
  <line
     x1="82.735786"
     y1="-37.91573"
     x2="91.903046"
     y2="-37.91573"
     stroke-width="0.999998"
     stroke-dasharray="0.999998"
     stroke="#0000ff"
     id="line1749" />
  <line
     x1="83.813812"
     y1="-37.29314"
     x2="92.981064"
     y2="-37.29314"
     stroke-width="0.999998"
     stroke-dasharray="none"
     stroke="#0000ff"
     id="line1751" />
  <line
     x1="82.735786"
     y1="-39.694569"
     x2="91.903046"
     y2="-39.694569"
     stroke-width="0.999998"
     stroke-dasharray="none"
     stroke="#0000ff"
     id="line1753" />
  <line
     x1="83.813812"
     y1="-39.071972"
     x2="92.981064"
     y2="-39.071972"
     stroke-width="0.999998"
     stroke-dasharray="none"
     stroke="#0000ff"
     id="line1755" />
</svg>
