<?xml version="1.0" encoding="UTF-8" standalone="no"?>
<svg
   xmlns:dc="http://purl.org/dc/elements/1.1/"
   xmlns:cc="http://creativecommons.org/ns#"
   xmlns:rdf="http://www.w3.org/1999/02/22-rdf-syntax-ns#"
   xmlns:svg="http://www.w3.org/2000/svg"
   xmlns="http://www.w3.org/2000/svg"
   xmlns:xlink="http://www.w3.org/1999/xlink"
   xmlns:sodipodi="http://sodipodi.sourceforge.net/DTD/sodipodi-0.dtd"
   xmlns:inkscape="http://www.inkscape.org/namespaces/inkscape"
   width="170mm"
   height="40mm"
   viewBox="0 0 170 40"
   version="1.1"
   id="svg8"
   inkscape:version="1.0.1 (3bc2e813f5, 2020-09-07)"
   sodipodi:docname="radiographic-abnormality-lucency.svg">
  <defs
     id="defs2">
    <inkscape:perspective
       sodipodi:type="inkscape:persp3d"
       inkscape:vp_x="394.99999 : 131 : 1"
       inkscape:vp_y="6.1232333e-14 : -999.99982 : 0"
       inkscape:vp_z="145 : 126 : 1"
       inkscape:persp3d-origin="105 : 37.999991 : 1"
       id="perspective833" />
    <clipPath
       clipPathUnits="userSpaceOnUse"
       id="clipPath7489">
      <rect
         style="opacity:0.342481;fill:#000000;stroke:none;stroke-width:0.25;stroke-linecap:square;paint-order:stroke fill markers"
         id="rect7491"
         width="40"
         height="40"
         x="408.36075"
         y="160.49998" />
    </clipPath>
  </defs>
  <sodipodi:namedview
     id="base"
     pagecolor="#ffffff"
     bordercolor="#666666"
     borderopacity="1.0"
     inkscape:pageopacity="0.0"
     inkscape:pageshadow="2"
     inkscape:zoom="1.6731073"
     inkscape:cx="279.04396"
     inkscape:cy="195.25227"
     inkscape:document-units="mm"
     inkscape:current-layer="layer1"
     inkscape:document-rotation="0"
     showgrid="true"
     inkscape:window-width="2560"
     inkscape:window-height="1376"
     inkscape:window-x="0"
     inkscape:window-y="27"
     inkscape:window-maximized="1"
     fit-margin-top="0"
     fit-margin-left="0"
     fit-margin-right="0"
     fit-margin-bottom="0">
    <inkscape:grid
       type="axonomgrid"
       id="grid949"
       spacingy="2.5"
       gridanglex="70"
       gridanglez="0"
       originx="-418.56576"
       originy="-279.99999" />
  </sodipodi:namedview>
  <metadata
     id="metadata5">
    <rdf:RDF>
      <cc:Work
         rdf:about="">
        <dc:format>image/svg+xml</dc:format>
        <dc:type
           rdf:resource="http://purl.org/dc/dcmitype/StillImage" />
        <dc:title />
      </cc:Work>
    </rdf:RDF>
  </metadata>
  <g
     inkscape:label="Layer 1"
     inkscape:groupmode="layer"
     id="layer1"
     transform="translate(-317.36819,-160.49998)">
    <image
       sodipodi:absref="/home/raniere/Documents/qualifying-report/img/radiopaedia.org/33107.jpg"
       xlink:href="radiopaedia.org/33107.jpg"
       style="stroke-width:7.03131;image-rendering:pixelated"
       y="160.49998"
       x="356.66736"
       id="image1111"
       preserveAspectRatio="none"
       height="40"
       width="43.010349" />
    <ellipse
       style="fill:none;stroke:#ff0000;stroke-width:0.5;stroke-linecap:square;stroke-miterlimit:4;stroke-dasharray:none;stroke-opacity:1"
       id="path1133"
       cx="370.82761"
       cy="176.21539"
       rx="5.8025641"
       ry="5.8025646" />
    <image
       sodipodi:absref="/home/raniere/Documents/qualifying-report/img/radiopaedia.org/33107.jpg"
       xlink:href="radiopaedia.org/33107.jpg"
       clip-path="url(#clipPath7489)"
       style="stroke-width:2.46909;image-rendering:pixelated"
       y="135.74678"
       x="388.03619"
       id="image6624"
       preserveAspectRatio="none"
       height="113.90907"
       width="122.48173" />
    <circle
       style="fill:none;stroke:#ff0000;stroke-width:0.5;stroke-linecap:square;stroke-miterlimit:4;stroke-dasharray:none;stroke-opacity:1"
       id="ellipse6626"
       cx="428.36075"
       cy="180.49998"
       r="16.524118" />
  </g>
</svg>
