<?xml version="1.0" encoding="UTF-8" standalone="no"?>
<svg
   xmlns:dc="http://purl.org/dc/elements/1.1/"
   xmlns:cc="http://creativecommons.org/ns#"
   xmlns:rdf="http://www.w3.org/1999/02/22-rdf-syntax-ns#"
   xmlns:svg="http://www.w3.org/2000/svg"
   xmlns="http://www.w3.org/2000/svg"
   xmlns:xlink="http://www.w3.org/1999/xlink"
   xmlns:sodipodi="http://sodipodi.sourceforge.net/DTD/sodipodi-0.dtd"
   xmlns:inkscape="http://www.inkscape.org/namespaces/inkscape"
   width="170.00003mm"
   height="90.25mm"
   viewBox="0 0 170.00003 90.250002"
   version="1.1"
   id="svg8"
   inkscape:version="1.0.1 (3bc2e813f5, 2020-09-07)"
   sodipodi:docname="transfer-learning.svg">
  <defs
     id="defs2">
    <marker
       style="overflow:visible"
       id="marker7316"
       refX="0"
       refY="0"
       orient="auto"
       inkscape:stockid="TriangleOutS"
       inkscape:isstock="true">
      <path
         transform="scale(0.2)"
         style="fill:#000000;fill-opacity:1;fill-rule:evenodd;stroke:#000000;stroke-width:1pt;stroke-opacity:1"
         d="M 5.77,0 -2.88,5 V -5 Z"
         id="path7314" />
    </marker>
    <marker
       style="overflow:visible"
       id="marker7210"
       refX="0"
       refY="0"
       orient="auto"
       inkscape:stockid="TriangleOutS"
       inkscape:isstock="true">
      <path
         transform="scale(0.2)"
         style="fill:#000000;fill-opacity:1;fill-rule:evenodd;stroke:#000000;stroke-width:1pt;stroke-opacity:1"
         d="M 5.77,0 -2.88,5 V -5 Z"
         id="path7208" />
    </marker>
    <marker
       style="overflow:visible"
       id="marker7200"
       refX="0"
       refY="0"
       orient="auto"
       inkscape:stockid="TriangleOutS"
       inkscape:isstock="true">
      <path
         transform="scale(0.2)"
         style="fill:#000000;fill-opacity:1;fill-rule:evenodd;stroke:#000000;stroke-width:1pt;stroke-opacity:1"
         d="M 5.77,0 -2.88,5 V -5 Z"
         id="path7198" />
    </marker>
    <marker
       style="overflow:visible"
       id="marker1678"
       refX="0"
       refY="0"
       orient="auto"
       inkscape:stockid="TriangleOutS"
       inkscape:isstock="true"
       inkscape:collect="always">
      <path
         transform="scale(0.2)"
         style="fill:#000000;fill-opacity:1;fill-rule:evenodd;stroke:#000000;stroke-width:1pt;stroke-opacity:1"
         d="M 5.77,0 -2.88,5 V -5 Z"
         id="path1676" />
    </marker>
    <marker
       style="overflow:visible"
       id="marker1609"
       refX="0"
       refY="0"
       orient="auto"
       inkscape:stockid="TriangleOutS"
       inkscape:isstock="true"
       inkscape:collect="always">
      <path
         transform="scale(0.2)"
         style="fill:#000000;fill-opacity:1;fill-rule:evenodd;stroke:#000000;stroke-width:1pt;stroke-opacity:1"
         d="M 5.77,0 -2.88,5 V -5 Z"
         id="path1607" />
    </marker>
    <marker
       style="overflow:visible"
       id="Arrow1Lstart"
       refX="0"
       refY="0"
       orient="auto"
       inkscape:stockid="Arrow1Lstart"
       inkscape:isstock="true">
      <path
         transform="matrix(0.8,0,0,0.8,10,0)"
         style="fill:#000000;fill-opacity:0;fill-rule:evenodd;stroke:#000000;stroke-width:1pt;stroke-opacity:1"
         d="M 0,0 5,-5 -12.5,0 5,5 Z"
         id="path1279" />
    </marker>
    <marker
       style="overflow:visible"
       id="TriangleOutS"
       refX="0"
       refY="0"
       orient="auto"
       inkscape:stockid="TriangleOutS"
       inkscape:isstock="true">
      <path
         transform="scale(0.2)"
         style="fill:#000000;fill-opacity:0;fill-rule:evenodd;stroke:#000000;stroke-width:1pt;stroke-opacity:1"
         d="M 5.77,0 -2.88,5 V -5 Z"
         id="path1427" />
    </marker>
    <marker
       style="overflow:visible"
       id="Arrow1Send"
       refX="0"
       refY="0"
       orient="auto"
       inkscape:stockid="Arrow1Send"
       inkscape:isstock="true">
      <path
         transform="matrix(-0.2,0,0,-0.2,-1.2,0)"
         style="fill:#000000;fill-opacity:0;fill-rule:evenodd;stroke:#000000;stroke-width:1pt;stroke-opacity:1"
         d="M 0,0 5,-5 -12.5,0 5,5 Z"
         id="path1294" />
    </marker>
    <marker
       style="overflow:visible"
       id="marker1678-6"
       refX="0"
       refY="0"
       orient="auto"
       inkscape:stockid="TriangleOutS"
       inkscape:isstock="true">
      <path
         transform="scale(0.2)"
         style="fill:#000000;fill-opacity:1;fill-rule:evenodd;stroke:#000000;stroke-width:1pt;stroke-opacity:1"
         d="M 5.77,0 -2.88,5 V -5 Z"
         id="path1676-6" />
    </marker>
  </defs>
  <sodipodi:namedview
     id="base"
     pagecolor="#ffffff"
     bordercolor="#666666"
     borderopacity="1.0"
     inkscape:pageopacity="0.0"
     inkscape:pageshadow="2"
     inkscape:zoom="1.8901172"
     inkscape:cx="309.17315"
     inkscape:cy="120.1286"
     inkscape:document-units="mm"
     inkscape:current-layer="layer1"
     inkscape:document-rotation="0"
     showgrid="true"
     inkscape:window-width="2560"
     inkscape:window-height="1376"
     inkscape:window-x="0"
     inkscape:window-y="27"
     inkscape:window-maximized="1"
     fit-margin-top="0"
     fit-margin-left="0"
     fit-margin-right="0"
     fit-margin-bottom="0"
     inkscape:snap-bbox="false"
     inkscape:snap-global="true">
    <inkscape:grid
       type="xygrid"
       id="grid1127"
       originx="0.12500029"
       originy="0.12500001"
       units="mm"
       spacingx="1"
       spacingy="1" />
  </sodipodi:namedview>
  <metadata
     id="metadata5">
    <rdf:RDF>
      <cc:Work
         rdf:about="">
        <dc:format>image/svg+xml</dc:format>
        <dc:type
           rdf:resource="http://purl.org/dc/dcmitype/StillImage" />
        <dc:title></dc:title>
      </cc:Work>
    </rdf:RDF>
  </metadata>
  <g
     inkscape:label="Layer 1"
     inkscape:groupmode="layer"
     id="layer1"
     transform="translate(272.5,129.625)">
    <path
       style="opacity:1;vector-effect:none;fill:none;fill-opacity:0;stroke:#000000;stroke-width:1;stroke-linecap:butt;stroke-linejoin:miter;stroke-miterlimit:4;stroke-dasharray:none;stroke-dashoffset:0;stroke-opacity:1;marker-end:url(#marker1609)"
       d="m -209.775,-109.5 h 3.4"
       id="path1277"
       sodipodi:nodetypes="cc" />
    <g
       style="fill:#6fc16c;fill-opacity:1;stroke-width:1.47059"
       id="g2704"
       transform="matrix(0.34,0,0,0.34,-192.595,-113.08134)">
      <path
         d="M 12.643,15 C 13.979,15 15,13.845 15,12.5 V 5 H 1 v 7.5 C 1,13.845 2.021,15 3.357,15 Z M 5.5,7 h 5 a 0.5,0.5 0 0 1 0,1 h -5 a 0.5,0.5 0 0 1 0,-1 z M 0.8,1 A 0.8,0.8 0 0 0 0,1.8 V 3 A 0.8,0.8 0 0 0 0.8,3.8 H 15.2 A 0.8,0.8 0 0 0 16,3 V 1.8 A 0.8,0.8 0 0 0 15.2,1 Z"
         id="path2693"
         style="fill:#6fc16c;fill-opacity:1;stroke-width:1.4729;stroke-miterlimit:4;stroke-dasharray:none" />
    </g>
    <g
       style="fill:#2c56a0;fill-opacity:1;stroke-width:1.47059"
       id="g2708"
       transform="matrix(0.34,0,0,0.34,-192.595,-106.2445)">
      <path
         d="M 12.643,15 C 13.979,15 15,13.845 15,12.5 V 5 H 1 v 7.5 C 1,13.845 2.021,15 3.357,15 Z M 5.5,7 h 5 a 0.5,0.5 0 0 1 0,1 h -5 a 0.5,0.5 0 0 1 0,-1 z M 0.8,1 A 0.8,0.8 0 0 0 0,1.8 V 3 A 0.8,0.8 0 0 0 0.8,3.8 H 15.2 A 0.8,0.8 0 0 0 16,3 V 1.8 A 0.8,0.8 0 0 0 15.2,1 Z"
         id="path2706"
         style="fill:#2c56a0;fill-opacity:1;stroke-width:1.4729;stroke-miterlimit:4;stroke-dasharray:none" />
    </g>
    <g
       style="fill:#e9006c;fill-opacity:1;stroke-width:1.47059"
       id="g2712"
       transform="matrix(0.34,0,0,0.34,-192.595,-99.463203)">
      <path
         d="M 12.643,15 C 13.979,15 15,13.845 15,12.5 V 5 H 1 v 7.5 C 1,13.845 2.021,15 3.357,15 Z M 5.5,7 h 5 a 0.5,0.5 0 0 1 0,1 h -5 a 0.5,0.5 0 0 1 0,-1 z M 0.8,1 A 0.8,0.8 0 0 0 0,1.8 V 3 A 0.8,0.8 0 0 0 0.8,3.8 H 15.2 A 0.8,0.8 0 0 0 16,3 V 1.8 A 0.8,0.8 0 0 0 15.2,1 Z"
         id="path2710"
         style="fill:#e9006c;fill-opacity:1;stroke-width:1.4729;stroke-miterlimit:4;stroke-dasharray:none" />
    </g>
    <text
       xml:space="preserve"
       style="font-style:normal;font-weight:normal;font-size:4.23333px;line-height:1.25;font-family:sans-serif;letter-spacing:0px;word-spacing:0px;fill:#000000;fill-opacity:1;stroke:none;stroke-width:0.264583"
       x="-267.43597"
       y="-124.63278"
       id="text1598"><tspan
         sodipodi:role="line"
         id="tspan1596"
         x="-267.43597"
         y="-124.63278"
         style="font-style:normal;font-variant:normal;font-weight:normal;font-stretch:normal;font-size:4.23333px;font-family:STIX;-inkscape-font-specification:STIX;stroke-width:0.264583">Input</tspan></text>
    <text
       xml:space="preserve"
       style="font-style:normal;font-weight:normal;font-size:4.23333px;line-height:1.25;font-family:sans-serif;letter-spacing:0px;word-spacing:0px;fill:#000000;fill-opacity:1;stroke:none;stroke-width:0.264583"
       x="-262.54572"
       y="-114.58184"
       id="text1602"><tspan
         sodipodi:role="line"
         id="tspan1600"
         x="-262.54572"
         y="-114.58184"
         style="font-style:normal;font-variant:normal;font-weight:normal;font-stretch:normal;font-size:4.23333px;font-family:STIX;-inkscape-font-specification:STIX;stroke-width:0.264583">Image</tspan></text>
    <text
       xml:space="preserve"
       style="font-style:normal;font-weight:normal;font-size:4.23333px;line-height:1.25;font-family:sans-serif;letter-spacing:0px;word-spacing:0px;fill:#000000;fill-opacity:1;stroke:none;stroke-width:0.264583"
       x="-195.45663"
       y="-114.61069"
       id="text1606"><tspan
         sodipodi:role="line"
         id="tspan1604"
         x="-195.45663"
         y="-114.61069"
         style="font-style:normal;font-variant:normal;font-weight:normal;font-stretch:normal;font-size:4.23333px;font-family:STIX;-inkscape-font-specification:STIX;stroke-width:0.264583">Labels</tspan></text>
    <rect
       style="fill:none;fill-opacity:0.4;stroke:#000000;stroke-width:0.25;stroke-linecap:butt;stroke-linejoin:round;stroke-miterlimit:4;stroke-dasharray:none;stroke-opacity:1"
       id="rect1608"
       width="25"
       height="28"
       x="-267.375"
       y="-119.5" />
    <rect
       style="fill:none;fill-opacity:0.4;stroke:#000000;stroke-width:0.25;stroke-linecap:butt;stroke-linejoin:round;stroke-miterlimit:4;stroke-dasharray:none;stroke-opacity:1"
       id="rect1610"
       width="60"
       height="40"
       x="-272.375"
       y="-129.5" />
    <text
       xml:space="preserve"
       style="font-style:normal;font-weight:normal;font-size:4.23333px;line-height:1.25;font-family:sans-serif;letter-spacing:0px;word-spacing:0px;fill:#000000;fill-opacity:1;stroke:none;stroke-width:0.264583"
       x="-197.43645"
       y="-124.46319"
       id="text1618"><tspan
         sodipodi:role="line"
         id="tspan1616"
         x="-197.43645"
         y="-124.46319"
         style="font-style:normal;font-variant:normal;font-weight:normal;font-stretch:normal;font-size:4.23333px;font-family:STIX;-inkscape-font-specification:STIX;stroke-width:0.264583">ML (training)</tspan></text>
    <text
       xml:space="preserve"
       style="font-style:normal;font-weight:normal;font-size:4.23333px;line-height:1.25;font-family:sans-serif;letter-spacing:0px;word-spacing:0px;fill:#000000;fill-opacity:1;stroke:none;stroke-width:0.264583"
       x="-137.16753"
       y="-124.61785"
       id="text1622"><tspan
         sodipodi:role="line"
         id="tspan1620"
         x="-137.16753"
         y="-124.61785"
         style="font-style:normal;font-variant:normal;font-weight:normal;font-stretch:normal;font-size:4.23333px;font-family:STIX;-inkscape-font-specification:STIX;stroke-width:0.264583">Output</tspan></text>
    <rect
       style="fill:none;fill-opacity:0.4;stroke:#000000;stroke-width:0.25;stroke-linecap:butt;stroke-linejoin:round;stroke-miterlimit:4;stroke-dasharray:none;stroke-opacity:1"
       id="rect1630"
       width="15"
       height="28"
       x="-197.375"
       y="-119.5" />
    <path
       style="opacity:1;vector-effect:none;fill:none;fill-opacity:0;stroke:#000000;stroke-width:1;stroke-linecap:butt;stroke-linejoin:miter;stroke-miterlimit:4;stroke-dasharray:none;stroke-dashoffset:0;stroke-opacity:1;marker-end:url(#marker1678)"
       d="m -149.86075,-109.5 h 3.4"
       id="path1674"
       sodipodi:nodetypes="cc" />
    <rect
       style="fill:none;fill-opacity:0.4;stroke:#000000;stroke-width:0.25;stroke-linecap:butt;stroke-linejoin:round;stroke-miterlimit:4;stroke-dasharray:none;stroke-opacity:1"
       id="rect1808"
       width="50"
       height="40"
       x="-202.375"
       y="-129.5" />
    <rect
       style="fill:none;fill-opacity:0.4;stroke:#000000;stroke-width:0.25;stroke-linecap:butt;stroke-linejoin:round;stroke-miterlimit:4;stroke-dasharray:none;stroke-opacity:1"
       id="rect1810"
       width="39.750038"
       height="39.999985"
       x="-142.375"
       y="-129.5" />
    <text
       xml:space="preserve"
       style="font-style:normal;font-weight:normal;font-size:4.23333px;line-height:1.25;font-family:sans-serif;letter-spacing:0px;word-spacing:0px;fill:#000000;fill-opacity:1;stroke:none;stroke-width:0.264583"
       x="-181.72662"
       y="-114.61492"
       id="text3491"><tspan
         sodipodi:role="line"
         id="tspan3489"
         x="-181.72662"
         y="-114.61492"
         style="font-style:normal;font-variant:normal;font-weight:normal;font-stretch:normal;font-size:4.23333px;font-family:STIX;-inkscape-font-specification:STIX;stroke-width:0.264583">Weights</tspan></text>
    <text
       xml:space="preserve"
       style="font-style:normal;font-weight:normal;font-size:4.23333px;line-height:1.25;font-family:sans-serif;letter-spacing:0px;word-spacing:0px;fill:#000000;fill-opacity:1;stroke:none;stroke-width:0.264583"
       x="-176.98975"
       y="-108.90719"
       id="text3499"><tspan
         sodipodi:role="line"
         id="tspan3497"
         x="-176.98975"
         y="-108.90719"
         style="font-style:normal;font-variant:normal;font-weight:normal;font-stretch:normal;font-size:4.23333px;font-family:STIX;-inkscape-font-specification:STIX;stroke-width:0.264583">w<tspan
   style="font-size:65%;baseline-shift:super"
   id="tspan3519">0</tspan><tspan
   style="font-size:2.75167px;baseline-shift:sub;stroke-width:0.264583"
   id="tspan3495"
   dx="-1.5">1</tspan></tspan></text>
    <text
       xml:space="preserve"
       style="font-style:normal;font-weight:normal;font-size:4.23333px;line-height:1.25;font-family:sans-serif;letter-spacing:0px;word-spacing:0px;fill:#000000;fill-opacity:1;stroke:none;stroke-width:0.264583"
       x="-177.09982"
       y="-102.07035"
       id="text3507"><tspan
         sodipodi:role="line"
         id="tspan3505"
         x="-177.09982"
         y="-102.07035"
         style="font-style:normal;font-variant:normal;font-weight:normal;font-stretch:normal;font-size:4.23333px;font-family:STIX;-inkscape-font-specification:STIX;stroke-width:0.264583">w<tspan
   style="font-size:65%;baseline-shift:super"
   id="tspan3521">0</tspan><tspan
   style="font-size:2.75167px;baseline-shift:sub;stroke-width:0.264583"
   id="tspan3503"
   dx="-1.5">2</tspan></tspan></text>
    <text
       xml:space="preserve"
       style="font-style:normal;font-weight:normal;font-size:4.23333px;line-height:1.25;font-family:sans-serif;letter-spacing:0px;word-spacing:0px;fill:#000000;fill-opacity:1;stroke:none;stroke-width:0.264583"
       x="-177.04065"
       y="-95.289047"
       id="text3515"><tspan
         sodipodi:role="line"
         id="tspan3513"
         x="-177.04065"
         y="-95.289047"
         style="font-style:normal;font-variant:normal;font-weight:normal;font-stretch:normal;font-size:4.23333px;font-family:STIX;-inkscape-font-specification:STIX;stroke-width:0.264583">w<tspan
   style="font-size:65%;baseline-shift:super"
   id="tspan3523">0</tspan><tspan
   style="font-size:2.75167px;baseline-shift:sub;stroke-width:0.264583"
   id="tspan3511"
   dx="-1.5">3</tspan></tspan></text>
    <rect
       style="fill:none;fill-opacity:0.4;stroke:#000000;stroke-width:0.25;stroke-linecap:butt;stroke-linejoin:round;stroke-miterlimit:4;stroke-dasharray:none;stroke-opacity:1"
       id="rect3517"
       width="15"
       height="27.999998"
       x="-182.375"
       y="-119.5" />
    <text
       xml:space="preserve"
       style="font-style:normal;font-weight:normal;font-size:4.23333px;line-height:1.25;font-family:sans-serif;letter-spacing:0px;word-spacing:0px;fill:#000000;fill-opacity:1;stroke:none;stroke-width:0.264583"
       x="-136.72662"
       y="-114.61492"
       id="text1736-6"><tspan
         sodipodi:role="line"
         id="tspan1734-4"
         x="-136.72662"
         y="-114.61492"
         style="font-style:normal;font-variant:normal;font-weight:normal;font-stretch:normal;font-size:4.23333px;font-family:STIX;-inkscape-font-specification:STIX;stroke-width:0.264583">Weights</tspan></text>
    <text
       xml:space="preserve"
       style="font-style:normal;font-weight:normal;font-size:4.23333px;line-height:1.25;font-family:sans-serif;letter-spacing:0px;word-spacing:0px;fill:#000000;fill-opacity:1;stroke:none;stroke-width:0.264583"
       x="-131.98975"
       y="-108.90719"
       id="text1740-3"><tspan
         sodipodi:role="line"
         id="tspan1738-0"
         x="-131.98975"
         y="-108.90719"
         style="font-style:normal;font-variant:normal;font-weight:normal;font-stretch:normal;font-size:4.23333px;font-family:STIX;-inkscape-font-specification:STIX;stroke-width:0.264583">w<tspan
   style="font-size:65%;baseline-shift:super"
   id="tspan7544">+</tspan><tspan
   style="font-size:2.75167px;baseline-shift:sub;stroke-width:0.264583"
   id="tspan1912-2"
   dx="-1.5">1</tspan></tspan></text>
    <text
       xml:space="preserve"
       style="font-style:normal;font-weight:normal;font-size:4.23333px;line-height:1.25;font-family:sans-serif;letter-spacing:0px;word-spacing:0px;fill:#000000;fill-opacity:1;stroke:none;stroke-width:0.264583"
       x="-132.09982"
       y="-102.07035"
       id="text1744-3"><tspan
         sodipodi:role="line"
         id="tspan1742-0"
         x="-132.09982"
         y="-102.07035"
         style="font-style:normal;font-variant:normal;font-weight:normal;font-stretch:normal;font-size:4.23333px;font-family:STIX;-inkscape-font-specification:STIX;stroke-width:0.264583">w<tspan
   style="font-size:65%;baseline-shift:super"
   id="tspan7546">+</tspan><tspan
   style="font-size:2.75167px;baseline-shift:sub;stroke-width:0.264583"
   id="tspan1914-4"
   dx="-1.5">2</tspan></tspan></text>
    <text
       xml:space="preserve"
       style="font-style:normal;font-weight:normal;font-size:4.23333px;line-height:1.25;font-family:sans-serif;letter-spacing:0px;word-spacing:0px;fill:#000000;fill-opacity:1;stroke:none;stroke-width:0.264583"
       x="-132.04065"
       y="-95.289047"
       id="text1748-9"><tspan
         sodipodi:role="line"
         id="tspan1746-2"
         x="-132.04065"
         y="-95.289047"
         style="font-style:normal;font-variant:normal;font-weight:normal;font-stretch:normal;font-size:4.23333px;font-family:STIX;-inkscape-font-specification:STIX;stroke-width:0.264583">w<tspan
   style="font-size:65%;baseline-shift:super"
   id="tspan7548">+</tspan><tspan
   style="font-size:2.75167px;baseline-shift:sub;stroke-width:0.264583"
   id="tspan1916-0"
   dx="-1.5">3</tspan></tspan></text>
    <rect
       style="fill:none;fill-opacity:0.4;stroke:#000000;stroke-width:0.25;stroke-linecap:butt;stroke-linejoin:round;stroke-miterlimit:4;stroke-dasharray:none;stroke-opacity:1"
       id="rect1864-5"
       width="15"
       height="27.999998"
       x="-137.375"
       y="-119.5" />
    <g
       style="fill:#2c56a0;fill-opacity:1;stroke-width:1.47059"
       id="g7837"
       transform="matrix(0.34,0,0,0.34,-237.595,-106.2445)">
      <path
         d="M 12.643,15 C 13.979,15 15,13.845 15,12.5 V 5 H 1 v 7.5 C 1,13.845 2.021,15 3.357,15 Z M 5.5,7 h 5 a 0.5,0.5 0 0 1 0,1 h -5 a 0.5,0.5 0 0 1 0,-1 z M 0.8,1 A 0.8,0.8 0 0 0 0,1.8 V 3 A 0.8,0.8 0 0 0 0.8,3.8 H 15.2 A 0.8,0.8 0 0 0 16,3 V 1.8 A 0.8,0.8 0 0 0 15.2,1 Z"
         id="path7835"
         style="fill:#2c56a0;fill-opacity:1;stroke-width:1.4729;stroke-miterlimit:4;stroke-dasharray:none" />
    </g>
    <text
       xml:space="preserve"
       style="font-style:normal;font-weight:normal;font-size:4.23333px;line-height:1.25;font-family:sans-serif;letter-spacing:0px;word-spacing:0px;fill:#000000;fill-opacity:1;stroke:none;stroke-width:0.264583"
       x="-240.45663"
       y="-114.61069"
       id="text7845"><tspan
         sodipodi:role="line"
         id="tspan7843"
         x="-240.45663"
         y="-114.61069"
         style="font-style:normal;font-variant:normal;font-weight:normal;font-stretch:normal;font-size:4.23333px;font-family:STIX;-inkscape-font-specification:STIX;stroke-width:0.264583">Label</tspan></text>
    <rect
       style="fill:none;fill-opacity:0.4;stroke:#000000;stroke-width:0.25;stroke-linecap:butt;stroke-linejoin:round;stroke-miterlimit:4;stroke-dasharray:none;stroke-opacity:1"
       id="rect7847"
       width="15"
       height="28"
       x="-242.375"
       y="-119.5" />
    <image
       sodipodi:absref="/home/raniere/Documents/qualifying-report/img/commons.wikimedia.org/x-ray-normal-hip.jpg"
       xlink:href="commons.wikimedia.org/x-ray-normal-hip.jpg"
       y="-61.546661"
       x="-264.875"
       id="image7080"
       preserveAspectRatio="none"
       height="16.959618"
       width="20"
       style="stroke-width:1.49997" />
    <path
       style="opacity:1;vector-effect:none;fill:none;fill-opacity:0;stroke:#000000;stroke-width:1;stroke-linecap:butt;stroke-linejoin:miter;stroke-miterlimit:4;stroke-dasharray:none;stroke-dashoffset:0;stroke-opacity:1;marker-end:url(#marker7210)"
       d="m -209.775,-59.5 h 3.4"
       id="path7082"
       sodipodi:nodetypes="cc" />
    <g
       style="fill:#eb8dbd;fill-opacity:1;stroke-width:1.47059"
       id="g7086"
       transform="matrix(0.34,0,0,0.34,-192.595,-63.08134)">
      <path
         d="M 12.643,15 C 13.979,15 15,13.845 15,12.5 V 5 H 1 v 7.5 C 1,13.845 2.021,15 3.357,15 Z M 5.5,7 h 5 a 0.5,0.5 0 0 1 0,1 h -5 a 0.5,0.5 0 0 1 0,-1 z M 0.8,1 A 0.8,0.8 0 0 0 0,1.8 V 3 A 0.8,0.8 0 0 0 0.8,3.8 H 15.2 A 0.8,0.8 0 0 0 16,3 V 1.8 A 0.8,0.8 0 0 0 15.2,1 Z"
         id="path7084"
         style="fill:#eb8dbd;fill-opacity:1;stroke-width:1.4729;stroke-miterlimit:4;stroke-dasharray:none" />
    </g>
    <g
       style="fill:#e6984c;fill-opacity:1;stroke-width:1.47059"
       id="g7090"
       transform="matrix(0.34,0,0,0.34,-192.595,-56.2445)">
      <path
         d="M 12.643,15 C 13.979,15 15,13.845 15,12.5 V 5 H 1 v 7.5 C 1,13.845 2.021,15 3.357,15 Z M 5.5,7 h 5 a 0.5,0.5 0 0 1 0,1 h -5 a 0.5,0.5 0 0 1 0,-1 z M 0.8,1 A 0.8,0.8 0 0 0 0,1.8 V 3 A 0.8,0.8 0 0 0 0.8,3.8 H 15.2 A 0.8,0.8 0 0 0 16,3 V 1.8 A 0.8,0.8 0 0 0 15.2,1 Z"
         id="path7088"
         style="fill:#e6984c;fill-opacity:1;stroke-width:1.4729;stroke-miterlimit:4;stroke-dasharray:none" />
    </g>
    <g
       style="fill:#843c21;fill-opacity:1;stroke-width:1.47059"
       id="g7094"
       transform="matrix(0.34,0,0,0.34,-192.595,-49.463203)">
      <path
         d="M 12.643,15 C 13.979,15 15,13.845 15,12.5 V 5 H 1 v 7.5 C 1,13.845 2.021,15 3.357,15 Z M 5.5,7 h 5 a 0.5,0.5 0 0 1 0,1 h -5 a 0.5,0.5 0 0 1 0,-1 z M 0.8,1 A 0.8,0.8 0 0 0 0,1.8 V 3 A 0.8,0.8 0 0 0 0.8,3.8 H 15.2 A 0.8,0.8 0 0 0 16,3 V 1.8 A 0.8,0.8 0 0 0 15.2,1 Z"
         id="path7092"
         style="fill:#843c21;fill-opacity:1;stroke-width:1.4729;stroke-miterlimit:4;stroke-dasharray:none" />
    </g>
    <text
       xml:space="preserve"
       style="font-style:normal;font-weight:normal;font-size:4.23333px;line-height:1.25;font-family:sans-serif;letter-spacing:0px;word-spacing:0px;fill:#000000;fill-opacity:1;stroke:none;stroke-width:0.264583"
       x="-267.43597"
       y="-74.632782"
       id="text7098"><tspan
         sodipodi:role="line"
         id="tspan7096"
         x="-267.43597"
         y="-74.632782"
         style="font-style:normal;font-variant:normal;font-weight:normal;font-stretch:normal;font-size:4.23333px;font-family:STIX;-inkscape-font-specification:STIX;stroke-width:0.264583">Input</tspan></text>
    <text
       xml:space="preserve"
       style="font-style:normal;font-weight:normal;font-size:4.23333px;line-height:1.25;font-family:sans-serif;letter-spacing:0px;word-spacing:0px;fill:#000000;fill-opacity:1;stroke:none;stroke-width:0.264583"
       x="-262.54572"
       y="-64.581841"
       id="text7102"><tspan
         sodipodi:role="line"
         id="tspan7100"
         x="-262.54572"
         y="-64.581841"
         style="font-style:normal;font-variant:normal;font-weight:normal;font-stretch:normal;font-size:4.23333px;font-family:STIX;-inkscape-font-specification:STIX;stroke-width:0.264583">Image</tspan></text>
    <text
       xml:space="preserve"
       style="font-style:normal;font-weight:normal;font-size:4.23333px;line-height:1.25;font-family:sans-serif;letter-spacing:0px;word-spacing:0px;fill:#000000;fill-opacity:1;stroke:none;stroke-width:0.264583"
       x="-195.45663"
       y="-64.610687"
       id="text7106"><tspan
         sodipodi:role="line"
         id="tspan7104"
         x="-195.45663"
         y="-64.610687"
         style="font-style:normal;font-variant:normal;font-weight:normal;font-stretch:normal;font-size:4.23333px;font-family:STIX;-inkscape-font-specification:STIX;stroke-width:0.264583">Labels</tspan></text>
    <rect
       style="fill:none;fill-opacity:0.4;stroke:#000000;stroke-width:0.25;stroke-linecap:butt;stroke-linejoin:round;stroke-miterlimit:4;stroke-dasharray:none;stroke-opacity:1"
       id="rect7108"
       width="25"
       height="28"
       x="-267.375"
       y="-69.5" />
    <rect
       style="fill:none;fill-opacity:0.4;stroke:#000000;stroke-width:0.25;stroke-linecap:butt;stroke-linejoin:round;stroke-miterlimit:4;stroke-dasharray:none;stroke-opacity:1"
       id="rect7110"
       width="60"
       height="40"
       x="-272.375"
       y="-79.5" />
    <text
       xml:space="preserve"
       style="font-style:normal;font-weight:normal;font-size:4.23333px;line-height:1.25;font-family:sans-serif;letter-spacing:0px;word-spacing:0px;fill:#000000;fill-opacity:1;stroke:none;stroke-width:0.264583"
       x="-197.43645"
       y="-74.463188"
       id="text7114"><tspan
         sodipodi:role="line"
         id="tspan7112"
         x="-197.43645"
         y="-74.463188"
         style="font-style:normal;font-variant:normal;font-weight:normal;font-stretch:normal;font-size:4.23333px;font-family:STIX;-inkscape-font-specification:STIX;stroke-width:0.264583">ML (training)</tspan></text>
    <text
       xml:space="preserve"
       style="font-style:normal;font-weight:normal;font-size:4.23333px;line-height:1.25;font-family:sans-serif;letter-spacing:0px;word-spacing:0px;fill:#000000;fill-opacity:1;stroke:none;stroke-width:0.264583"
       x="-137.16753"
       y="-74.617851"
       id="text7118"><tspan
         sodipodi:role="line"
         id="tspan7116"
         x="-137.16753"
         y="-74.617851"
         style="font-style:normal;font-variant:normal;font-weight:normal;font-stretch:normal;font-size:4.23333px;font-family:STIX;-inkscape-font-specification:STIX;stroke-width:0.264583">Output</tspan></text>
    <rect
       style="fill:none;fill-opacity:0.4;stroke:#000000;stroke-width:0.25;stroke-linecap:butt;stroke-linejoin:round;stroke-miterlimit:4;stroke-dasharray:none;stroke-opacity:1"
       id="rect7120"
       width="15"
       height="28"
       x="-197.375"
       y="-69.5" />
    <path
       style="opacity:1;vector-effect:none;fill:none;fill-opacity:0;stroke:#000000;stroke-width:1;stroke-linecap:butt;stroke-linejoin:miter;stroke-miterlimit:4;stroke-dasharray:none;stroke-dashoffset:0;stroke-opacity:1;marker-end:url(#marker7200)"
       d="m -149.86075,-59.5 h 3.4"
       id="path7122"
       sodipodi:nodetypes="cc" />
    <rect
       style="fill:none;fill-opacity:0.4;stroke:#000000;stroke-width:0.25;stroke-linecap:butt;stroke-linejoin:round;stroke-miterlimit:4;stroke-dasharray:none;stroke-opacity:1"
       id="rect7124"
       width="50"
       height="40"
       x="-202.375"
       y="-79.5" />
    <rect
       style="fill:none;fill-opacity:0.4;stroke:#000000;stroke-width:0.25;stroke-linecap:butt;stroke-linejoin:round;stroke-miterlimit:4;stroke-dasharray:none;stroke-opacity:1"
       id="rect7126"
       width="39.750038"
       height="39.999985"
       x="-142.375"
       y="-79.5" />
    <text
       xml:space="preserve"
       style="font-style:normal;font-weight:normal;font-size:4.23333px;line-height:1.25;font-family:sans-serif;letter-spacing:0px;word-spacing:0px;fill:#000000;fill-opacity:1;stroke:none;stroke-width:0.264583"
       x="-136.72662"
       y="-64.614922"
       id="text7160"><tspan
         sodipodi:role="line"
         id="tspan7158"
         x="-136.72662"
         y="-64.614922"
         style="font-style:normal;font-variant:normal;font-weight:normal;font-stretch:normal;font-size:4.23333px;font-family:STIX;-inkscape-font-specification:STIX;stroke-width:0.264583">Weights</tspan></text>
    <text
       xml:space="preserve"
       style="font-style:normal;font-weight:normal;font-size:4.23333px;line-height:1.25;font-family:sans-serif;letter-spacing:0px;word-spacing:0px;fill:#000000;fill-opacity:1;stroke:none;stroke-width:0.264583"
       x="-131.98975"
       y="-58.907188"
       id="text7168"><tspan
         sodipodi:role="line"
         id="tspan7166"
         x="-131.98975"
         y="-58.907188"
         style="font-style:normal;font-variant:normal;font-weight:normal;font-stretch:normal;font-size:4.23333px;font-family:STIX;-inkscape-font-specification:STIX;stroke-width:0.264583">w<tspan
   style="font-size:2.75167px;baseline-shift:super;stroke-width:0.264583"
   id="tspan7162">*</tspan><tspan
   style="font-size:2.75167px;baseline-shift:sub;stroke-width:0.264583"
   id="tspan7164"
   dx="-1.5">1</tspan></tspan></text>
    <text
       xml:space="preserve"
       style="font-style:normal;font-weight:normal;font-size:4.23333px;line-height:1.25;font-family:sans-serif;letter-spacing:0px;word-spacing:0px;fill:#000000;fill-opacity:1;stroke:none;stroke-width:0.264583"
       x="-132.09982"
       y="-52.070351"
       id="text7176"><tspan
         sodipodi:role="line"
         id="tspan7174"
         x="-132.09982"
         y="-52.070351"
         style="font-style:normal;font-variant:normal;font-weight:normal;font-stretch:normal;font-size:4.23333px;font-family:STIX;-inkscape-font-specification:STIX;stroke-width:0.264583">w<tspan
   style="font-size:2.75167px;baseline-shift:super;stroke-width:0.264583"
   id="tspan7170">*</tspan><tspan
   style="font-size:2.75167px;baseline-shift:sub;stroke-width:0.264583"
   id="tspan7172"
   dx="-1.5">2</tspan></tspan></text>
    <text
       xml:space="preserve"
       style="font-style:normal;font-weight:normal;font-size:4.23333px;line-height:1.25;font-family:sans-serif;letter-spacing:0px;word-spacing:0px;fill:#000000;fill-opacity:1;stroke:none;stroke-width:0.264583"
       x="-132.04065"
       y="-45.289047"
       id="text7184"><tspan
         sodipodi:role="line"
         id="tspan7182"
         x="-132.04065"
         y="-45.289047"
         style="font-style:normal;font-variant:normal;font-weight:normal;font-stretch:normal;font-size:4.23333px;font-family:STIX;-inkscape-font-specification:STIX;stroke-width:0.264583">w<tspan
   style="font-size:2.75167px;baseline-shift:super;stroke-width:0.264583"
   id="tspan7178">*</tspan><tspan
   style="font-size:2.75167px;baseline-shift:sub;stroke-width:0.264583"
   id="tspan7180"
   dx="-1.5">3</tspan></tspan></text>
    <rect
       style="fill:none;fill-opacity:0.4;stroke:#000000;stroke-width:0.25;stroke-linecap:butt;stroke-linejoin:round;stroke-miterlimit:4;stroke-dasharray:none;stroke-opacity:1"
       id="rect7186"
       width="15"
       height="27.999998"
       x="-137.375"
       y="-69.5" />
    <g
       style="fill:#e6984c;fill-opacity:1;stroke-width:1.47059"
       id="g7190"
       transform="matrix(0.34,0,0,0.34,-237.595,-56.2445)">
      <path
         d="M 12.643,15 C 13.979,15 15,13.845 15,12.5 V 5 H 1 v 7.5 C 1,13.845 2.021,15 3.357,15 Z M 5.5,7 h 5 a 0.5,0.5 0 0 1 0,1 h -5 a 0.5,0.5 0 0 1 0,-1 z M 0.8,1 A 0.8,0.8 0 0 0 0,1.8 V 3 A 0.8,0.8 0 0 0 0.8,3.8 H 15.2 A 0.8,0.8 0 0 0 16,3 V 1.8 A 0.8,0.8 0 0 0 15.2,1 Z"
         id="path7188"
         style="fill:#e6984c;fill-opacity:1;stroke-width:1.4729;stroke-miterlimit:4;stroke-dasharray:none" />
    </g>
    <text
       xml:space="preserve"
       style="font-style:normal;font-weight:normal;font-size:4.23333px;line-height:1.25;font-family:sans-serif;letter-spacing:0px;word-spacing:0px;fill:#000000;fill-opacity:1;stroke:none;stroke-width:0.264583"
       x="-240.45663"
       y="-64.610687"
       id="text7194"><tspan
         sodipodi:role="line"
         id="tspan7192"
         x="-240.45663"
         y="-64.610687"
         style="font-style:normal;font-variant:normal;font-weight:normal;font-stretch:normal;font-size:4.23333px;font-family:STIX;-inkscape-font-specification:STIX;stroke-width:0.264583">Label</tspan></text>
    <rect
       style="fill:none;fill-opacity:0.4;stroke:#000000;stroke-width:0.25;stroke-linecap:butt;stroke-linejoin:round;stroke-miterlimit:4;stroke-dasharray:none;stroke-opacity:1"
       id="rect7196"
       width="15"
       height="28"
       x="-242.375"
       y="-69.5" />
    <path
       style="opacity:1;vector-effect:none;fill:none;fill-opacity:0;stroke:#000000;stroke-width:1;stroke-linecap:butt;stroke-linejoin:miter;stroke-miterlimit:4;stroke-dasharray:none;stroke-dashoffset:0;stroke-opacity:1;marker-end:url(#marker7316)"
       d="m -122.375,-86.5 v 1.903136 c -40,0.01685 -80,0.04055 -120,0.06458 V -82.5"
       id="path7312"
       sodipodi:nodetypes="cccc" />
    <image
       sodipodi:absref="/home/raniere/Documents/qualifying-report/img/commons.wikimedia.org/Sleeping_Horse.jpg"
       xlink:href="commons.wikimedia.org/Sleeping_Horse.jpg"
       style="stroke-width:15.8697"
       y="-111.54666"
       x="-264.875"
       id="image7540"
       preserveAspectRatio="none"
       height="13.33111"
       width="20" />
    <text
       xml:space="preserve"
       style="font-style:normal;font-weight:normal;font-size:4.23333px;line-height:1.25;font-family:sans-serif;letter-spacing:0px;word-spacing:0px;fill:#000000;fill-opacity:1;stroke:none;stroke-width:0.264583"
       x="-181.72662"
       y="-64.614922"
       id="text7552"><tspan
         sodipodi:role="line"
         id="tspan7550"
         x="-181.72662"
         y="-64.614922"
         style="font-style:normal;font-variant:normal;font-weight:normal;font-stretch:normal;font-size:4.23333px;font-family:STIX;-inkscape-font-specification:STIX;stroke-width:0.264583">Weights</tspan></text>
    <text
       xml:space="preserve"
       style="font-style:normal;font-weight:normal;font-size:4.23333px;line-height:1.25;font-family:sans-serif;letter-spacing:0px;word-spacing:0px;fill:#000000;fill-opacity:1;stroke:none;stroke-width:0.264583"
       x="-176.98975"
       y="-58.907188"
       id="text7560"><tspan
         sodipodi:role="line"
         id="tspan7558"
         x="-176.98975"
         y="-58.907188"
         style="font-style:normal;font-variant:normal;font-weight:normal;font-stretch:normal;font-size:4.23333px;font-family:STIX;-inkscape-font-specification:STIX;stroke-width:0.264583">w<tspan
   style="font-size:65%;baseline-shift:super"
   id="tspan7554">+</tspan><tspan
   style="font-size:2.75167px;baseline-shift:sub;stroke-width:0.264583"
   id="tspan7556"
   dx="-1.5">1</tspan></tspan></text>
    <text
       xml:space="preserve"
       style="font-style:normal;font-weight:normal;font-size:4.23333px;line-height:1.25;font-family:sans-serif;letter-spacing:0px;word-spacing:0px;fill:#000000;fill-opacity:1;stroke:none;stroke-width:0.264583"
       x="-177.09982"
       y="-52.070351"
       id="text7568"><tspan
         sodipodi:role="line"
         id="tspan7566"
         x="-177.09982"
         y="-52.070351"
         style="font-style:normal;font-variant:normal;font-weight:normal;font-stretch:normal;font-size:4.23333px;font-family:STIX;-inkscape-font-specification:STIX;stroke-width:0.264583">w<tspan
   style="font-size:65%;baseline-shift:super"
   id="tspan7562">+</tspan><tspan
   style="font-size:2.75167px;baseline-shift:sub;stroke-width:0.264583"
   id="tspan7564"
   dx="-1.5">2</tspan></tspan></text>
    <text
       xml:space="preserve"
       style="font-style:normal;font-weight:normal;font-size:4.23333px;line-height:1.25;font-family:sans-serif;letter-spacing:0px;word-spacing:0px;fill:#000000;fill-opacity:1;stroke:none;stroke-width:0.264583"
       x="-177.04065"
       y="-45.289047"
       id="text7576"><tspan
         sodipodi:role="line"
         id="tspan7574"
         x="-177.04065"
         y="-45.289047"
         style="font-style:normal;font-variant:normal;font-weight:normal;font-stretch:normal;font-size:4.23333px;font-family:STIX;-inkscape-font-specification:STIX;stroke-width:0.264583">w<tspan
   style="font-size:65%;baseline-shift:super"
   id="tspan7570">+</tspan><tspan
   style="font-size:2.75167px;baseline-shift:sub;stroke-width:0.264583"
   id="tspan7572"
   dx="-1.5">3</tspan></tspan></text>
    <rect
       style="fill:none;fill-opacity:0.4;stroke:#000000;stroke-width:0.25;stroke-linecap:butt;stroke-linejoin:round;stroke-miterlimit:4;stroke-dasharray:none;stroke-opacity:1"
       id="rect7578"
       width="15"
       height="27.999998"
       x="-182.375"
       y="-69.5" />
  </g>
</svg>
