<?xml version="1.0" encoding="UTF-8" standalone="no"?>
<svg
   xmlns:dc="http://purl.org/dc/elements/1.1/"
   xmlns:cc="http://creativecommons.org/ns#"
   xmlns:rdf="http://www.w3.org/1999/02/22-rdf-syntax-ns#"
   xmlns:svg="http://www.w3.org/2000/svg"
   xmlns="http://www.w3.org/2000/svg"
   xmlns:sodipodi="http://sodipodi.sourceforge.net/DTD/sodipodi-0.dtd"
   xmlns:inkscape="http://www.inkscape.org/namespaces/inkscape"
   width="169.50339mm"
   height="44.396217mm"
   viewBox="0 0 169.50339 44.396217"
   version="1.1"
   id="svg8"
   inkscape:version="1.0.1 (3bc2e813f5, 2020-09-07)"
   sodipodi:docname="x-ray-magnification.svg">
  <defs
     id="defs2">
    <inkscape:path-effect
       effect="pts2ellipse"
       id="path-effect1345"
       is_visible="true"
       lpeversion="1"
       method="iso_circle"
       gen_arc="false"
       arc_other="false"
       slice_arc="false"
       gen_isometric_frame="false"
       draw_axes="false"
       gen_perspective_frame="false"
       draw_perspective_axes="false"
       rot_axes="-13"
       draw_ori_path="false" />
    <inkscape:path-effect
       effect="pts2ellipse"
       id="path-effect1311"
       is_visible="true"
       lpeversion="1"
       method="iso_circle"
       gen_arc="false"
       arc_other="false"
       slice_arc="false"
       gen_isometric_frame="false"
       draw_axes="false"
       gen_perspective_frame="false"
       draw_perspective_axes="false"
       rot_axes="-13"
       draw_ori_path="false" />
    <inkscape:path-effect
       effect="pts2ellipse"
       id="path-effect1154"
       is_visible="true"
       lpeversion="1"
       method="iso_circle"
       gen_arc="false"
       arc_other="false"
       slice_arc="false"
       gen_isometric_frame="false"
       draw_axes="false"
       gen_perspective_frame="false"
       draw_perspective_axes="false"
       rot_axes="-13"
       draw_ori_path="false" />
    <inkscape:path-effect
       effect="pts2ellipse"
       id="path-effect1124"
       is_visible="true"
       lpeversion="1"
       method="iso_circle"
       gen_arc="false"
       arc_other="false"
       slice_arc="false"
       gen_isometric_frame="false"
       draw_axes="false"
       gen_perspective_frame="false"
       draw_perspective_axes="false"
       rot_axes="-13"
       draw_ori_path="false" />
    <inkscape:path-effect
       effect="pts2ellipse"
       id="path-effect1038"
       is_visible="true"
       lpeversion="1"
       method="iso_circle"
       gen_arc="false"
       arc_other="false"
       slice_arc="false"
       gen_isometric_frame="false"
       draw_axes="false"
       gen_perspective_frame="false"
       draw_perspective_axes="false"
       rot_axes="-13"
       draw_ori_path="false" />
    <inkscape:path-effect
       effect="pts2ellipse"
       id="path-effect1006"
       is_visible="true"
       lpeversion="1"
       method="iso_circle"
       gen_arc="false"
       arc_other="false"
       slice_arc="false"
       gen_isometric_frame="false"
       draw_axes="false"
       gen_perspective_frame="false"
       draw_perspective_axes="false"
       rot_axes="-13"
       draw_ori_path="false" />
    <inkscape:path-effect
       effect="pts2ellipse"
       id="path-effect884"
       is_visible="true"
       lpeversion="1"
       method="iso_circle"
       gen_arc="false"
       arc_other="false"
       slice_arc="false"
       gen_isometric_frame="false"
       draw_axes="false"
       gen_perspective_frame="false"
       draw_perspective_axes="false"
       rot_axes="-13"
       draw_ori_path="false" />
  </defs>
  <sodipodi:namedview
     id="base"
     pagecolor="#ffffff"
     bordercolor="#666666"
     borderopacity="1.0"
     inkscape:pageopacity="0.0"
     inkscape:pageshadow="2"
     inkscape:zoom="1.979899"
     inkscape:cx="179.40475"
     inkscape:cy="-58.095064"
     inkscape:document-units="mm"
     inkscape:current-layer="layer1"
     inkscape:document-rotation="0"
     showgrid="true"
     fit-margin-top="0"
     fit-margin-left="0"
     fit-margin-right="0"
     fit-margin-bottom="0"
     inkscape:window-width="2560"
     inkscape:window-height="1376"
     inkscape:window-x="0"
     inkscape:window-y="27"
     inkscape:window-maximized="1"
     inkscape:snap-global="true">
    <inkscape:grid
       type="axonomgrid"
       id="grid835"
       originx="-51.711527"
       originy="-66.820293" />
  </sodipodi:namedview>
  <metadata
     id="metadata5">
    <rdf:RDF>
      <cc:Work
         rdf:about="">
        <dc:format>image/svg+xml</dc:format>
        <dc:type
           rdf:resource="http://purl.org/dc/dcmitype/StillImage" />
        <dc:title></dc:title>
      </cc:Work>
    </rdf:RDF>
  </metadata>
  <g
     inkscape:label="Layer 1"
     inkscape:groupmode="layer"
     id="layer1"
     transform="translate(-51.711526,-66.82029)">
    <text
       xml:space="preserve"
       style="font-style:normal;font-weight:normal;font-size:4.23333px;line-height:1.25;font-family:sans-serif;letter-spacing:0px;word-spacing:0px;fill:#000000;fill-opacity:1;stroke:none;stroke-width:0.264583"
       x="74.293755"
       y="69.711655"
       id="text932"><tspan
         sodipodi:role="line"
         x="74.293755"
         y="69.711655"
         style="font-style:normal;font-variant:normal;font-weight:normal;font-stretch:normal;font-size:4.23333px;font-family:STIX;-inkscape-font-specification:STIX;stroke-width:0.264583"
         id="tspan930">(a)</tspan></text>
    <path
       style="fill:none;fill-opacity:1;stroke:#000000;stroke-width:0.25;stroke-linecap:square;stroke-miterlimit:4;stroke-dasharray:0.25, 0.499999;stroke-dashoffset:0;stroke-opacity:1;paint-order:stroke fill markers"
       d="m 139.43009,93.499999 -3.4641,2"
       id="path1203" />
    <path
       style="fill:none;stroke:#000000;stroke-width:0.25;stroke-miterlimit:4;stroke-dasharray:none;stroke-opacity:1"
       d="m 146.35829,73.499999 13.85641,8 1.73205,-1 -13.8564,-8 z"
       id="path1096"
       sodipodi:nodetypes="ccccc" />
    <path
       style="fill:none;stroke:#000000;stroke-width:0.25;stroke-miterlimit:4;stroke-dasharray:none;stroke-opacity:1"
       d="m 160.2147,81.499999 v 16 l 1.73205,-1 v -16 z"
       id="path1098"
       sodipodi:nodetypes="ccccc" />
    <path
       style="fill:#000000;fill-opacity:1;stroke:#000000;stroke-width:0.25;stroke-miterlimit:4;stroke-dasharray:none;stroke-opacity:1"
       d="m 146.35829,73.499999 v 16 l 13.85641,8 v -16 z"
       id="path1100"
       sodipodi:nodetypes="ccccc" />
    <path
       style="vector-effect:none;fill:none;fill-opacity:0;stroke:#000000;stroke-width:0.25;stroke-linecap:butt;stroke-linejoin:miter;stroke-miterlimit:4;stroke-dasharray:none;stroke-dashoffset:0;stroke-opacity:1"
       d="m 139.43009,97.499999 v -4 l -3.4641,-2 v 4 z"
       id="path1102"
       sodipodi:nodetypes="ccccc" />
    <path
       style="fill:none;stroke:#ff0000;stroke-width:4;stroke-miterlimit:4;stroke-dasharray:none;stroke-opacity:1"
       d="M 137.3333,94.788474 122.10958,103.5"
       id="path1104"
       sodipodi:nodetypes="cc" />
    <path
       style="vector-effect:none;fill:#ffffff;fill-opacity:1;stroke:none;stroke-width:0.25;stroke-linecap:butt;stroke-linejoin:miter;stroke-miterlimit:4;stroke-dasharray:none;stroke-dashoffset:0;stroke-opacity:1"
       d="m 155.01855,88.499999 v -4 l -3.4641,-2 v 4 z"
       id="path1106"
       sodipodi:nodetypes="ccccc" />
    <path
       style="vector-effect:none;fill:none;fill-opacity:0;stroke:#000000;stroke-width:0.25;stroke-linecap:butt;stroke-linejoin:miter;stroke-miterlimit:4;stroke-dasharray:none;stroke-dashoffset:0;stroke-opacity:1"
       d="m 116.04741,111 v -4 l -3.46411,-2 v 4 z"
       id="path1108"
       sodipodi:nodetypes="ccccc" />
    <path
       style="vector-effect:none;fill:#ffffff;fill-opacity:1;stroke:#000000;stroke-width:0.25;stroke-linecap:butt;stroke-linejoin:miter;stroke-miterlimit:4;stroke-dasharray:none;stroke-dashoffset:0;stroke-opacity:1"
       d="m 112.5833,105 6.92821,-4 3.4641,2 -6.9282,4 z"
       id="path1110"
       sodipodi:nodetypes="ccccc" />
    <path
       style="fill:#ffffff;fill-opacity:1;stroke:#000000;stroke-width:0.25;stroke-linecap:square;stroke-miterlimit:4;stroke-dasharray:none;stroke-opacity:1"
       d="m 116.04741,111 6.9282,-4 v -4 l -6.9282,4 z"
       id="path1112"
       sodipodi:nodetypes="ccccc" />
    <path
       style="fill:#000000;fill-opacity:1;stroke:none;stroke-width:0.999996;stroke-miterlimit:4;stroke-dasharray:none;stroke-opacity:1"
       d="m 112.75739,108.22464 c -0.53766,-1.30397 -0.276,-2.46162 0.58444,-2.58569 0.86044,-0.12406 1.99382,0.83244 2.53149,2.13641 0.53766,1.30397 0.276,2.46162 -0.58444,2.58569 -0.86044,0.12406 -1.99382,-0.83244 -2.53149,-2.13641 z"
       id="path1114"
       inkscape:path-effect="#path-effect1124"
       inkscape:original-d="m 111.71728,106.5 2.59807,-1.5 2.59808,4.5 -2.59808,1.5 z"
       sodipodi:nodetypes="ccccc" />
    <path
       style="fill:none;stroke:#ff0000;stroke-width:1;stroke-miterlimit:4;stroke-dasharray:none;stroke-opacity:1"
       d="m 153.24402,85.598102 -12.08188,6.901897"
       id="path1116"
       sodipodi:nodetypes="cc" />
    <path
       style="vector-effect:none;fill:#ffffff;fill-opacity:1;stroke:#000000;stroke-width:0.25;stroke-linecap:butt;stroke-linejoin:miter;stroke-miterlimit:4;stroke-dasharray:none;stroke-dashoffset:0;stroke-opacity:1"
       d="m 135.96599,91.499999 3.4641,-2 3.4641,2 -3.4641,2 z"
       id="path1118"
       sodipodi:nodetypes="ccccc" />
    <path
       style="fill:#ffffff;fill-opacity:1;stroke:#000000;stroke-width:0.25;stroke-miterlimit:4;stroke-dasharray:none;stroke-opacity:1"
       d="m 139.43009,97.499999 3.4641,-2 v -4 l -3.4641,2 z"
       id="path1120"
       sodipodi:nodetypes="ccccc" />
    <path
       style="fill:none;fill-opacity:1;stroke:#000000;stroke-width:0.25;stroke-linecap:square;stroke-miterlimit:4;stroke-dasharray:0.25, 0.499999;stroke-dashoffset:0;stroke-opacity:1;paint-order:stroke fill markers"
       d="m 142.89419,95.499999 -3.4641,-2 v -4"
       id="path1199" />
    <text
       xml:space="preserve"
       style="font-style:normal;font-weight:normal;font-size:4.23333px;line-height:1.25;font-family:sans-serif;letter-spacing:0px;word-spacing:0px;fill:#000000;fill-opacity:1;stroke:none;stroke-width:0.264583"
       x="134.91553"
       y="69.711655"
       id="text1255"><tspan
         sodipodi:role="line"
         x="134.91553"
         y="69.711655"
         style="font-style:normal;font-variant:normal;font-weight:normal;font-stretch:normal;font-size:4.23333px;font-family:STIX;-inkscape-font-specification:STIX;stroke-width:0.264583"
         id="tspan1253">(b)</tspan></text>
    <text
       xml:space="preserve"
       style="font-style:normal;font-weight:normal;font-size:4.23333px;line-height:1.25;font-family:sans-serif;letter-spacing:0px;word-spacing:0px;fill:#000000;fill-opacity:1;stroke:none;stroke-width:0.264583"
       x="193.93369"
       y="69.711655"
       id="text1259"><tspan
         sodipodi:role="line"
         x="193.93369"
         y="69.711655"
         style="font-style:normal;font-variant:normal;font-weight:normal;font-stretch:normal;font-size:4.23333px;font-family:STIX;-inkscape-font-specification:STIX;stroke-width:0.264583"
         id="tspan1257">(c)</tspan></text>
    <path
       style="fill:none;fill-opacity:1;stroke:#000000;stroke-width:0.25;stroke-linecap:square;stroke-miterlimit:4;stroke-dasharray:0.25, 0.499999;stroke-dashoffset:0;stroke-opacity:1;paint-order:stroke fill markers"
       d="m 72.746131,96.999997 -3.4641,2"
       id="path1279" />
    <path
       style="fill:none;stroke:#000000;stroke-width:0.25;stroke-miterlimit:4;stroke-dasharray:none;stroke-opacity:1"
       d="m 85.736513,73.499999 13.85641,8 1.732047,-1 -13.856397,-8 z"
       id="path1281"
       sodipodi:nodetypes="ccccc" />
    <path
       style="fill:none;stroke:#000000;stroke-width:0.25;stroke-miterlimit:4;stroke-dasharray:none;stroke-opacity:1"
       d="m 99.592923,81.499999 v 16 l 1.732047,-1 v -16 z"
       id="path1283"
       sodipodi:nodetypes="ccccc" />
    <path
       style="fill:#000000;fill-opacity:1;stroke:#000000;stroke-width:0.25;stroke-miterlimit:4;stroke-dasharray:none;stroke-opacity:1"
       d="m 85.736513,73.499999 v 16 l 13.85641,8 v -16 z"
       id="path1285"
       sodipodi:nodetypes="ccccc" />
    <path
       style="vector-effect:none;fill:none;fill-opacity:0;stroke:#000000;stroke-width:0.25;stroke-linecap:butt;stroke-linejoin:miter;stroke-miterlimit:4;stroke-dasharray:none;stroke-dashoffset:0;stroke-opacity:1"
       d="m 72.746131,101 v -4.000003 l -3.4641,-2 v 4 z"
       id="path1287"
       sodipodi:nodetypes="ccccc" />
    <path
       style="fill:none;stroke:#ff0000;stroke-width:4;stroke-miterlimit:4;stroke-dasharray:none;stroke-opacity:1"
       d="M 71.014082,97.999997 61.487803,103.5"
       id="path1289"
       sodipodi:nodetypes="cc" />
    <path
       style="vector-effect:none;fill:#ffffff;fill-opacity:1;stroke:none;stroke-width:0.25;stroke-linecap:butt;stroke-linejoin:miter;stroke-miterlimit:4;stroke-dasharray:none;stroke-dashoffset:0;stroke-opacity:1"
       d="m 95.262793,89.999997 v -6 l -5.196152,-3 0,6 z"
       id="path1291"
       sodipodi:nodetypes="ccccc" />
    <path
       style="vector-effect:none;fill:none;fill-opacity:0;stroke:#000000;stroke-width:0.25;stroke-linecap:butt;stroke-linejoin:miter;stroke-miterlimit:4;stroke-dasharray:none;stroke-dashoffset:0;stroke-opacity:1"
       d="m 55.425633,111 v -4 l -3.46411,-2 v 4 z"
       id="path1293"
       sodipodi:nodetypes="ccccc" />
    <path
       style="vector-effect:none;fill:#ffffff;fill-opacity:1;stroke:#000000;stroke-width:0.25;stroke-linecap:butt;stroke-linejoin:miter;stroke-miterlimit:4;stroke-dasharray:none;stroke-dashoffset:0;stroke-opacity:1"
       d="m 51.961523,105 6.92821,-4 3.4641,2 -6.9282,4 z"
       id="path1295"
       sodipodi:nodetypes="ccccc" />
    <path
       style="fill:#ffffff;fill-opacity:1;stroke:#000000;stroke-width:0.25;stroke-linecap:square;stroke-miterlimit:4;stroke-dasharray:none;stroke-opacity:1"
       d="m 55.425633,111 6.9282,-4 v -4 l -6.9282,4 z"
       id="path1297"
       sodipodi:nodetypes="ccccc" />
    <path
       style="fill:#000000;fill-opacity:1;stroke:none;stroke-width:0.999996;stroke-miterlimit:4;stroke-dasharray:none;stroke-opacity:1"
       d="m 52.135617,108.22464 c -0.537664,-1.30397 -0.276004,-2.46162 0.584435,-2.58569 0.860438,-0.12406 1.993823,0.83244 2.531487,2.13641 0.537664,1.30397 0.276004,2.46162 -0.584435,2.58569 -0.860438,0.12406 -1.993823,-0.83244 -2.531487,-2.13641 z"
       id="path1299"
       inkscape:path-effect="#path-effect1311"
       inkscape:original-d="m 51.095503,106.5 2.59807,-1.5 2.59808,4.5 -2.59808,1.5 z"
       sodipodi:nodetypes="ccccc" />
    <path
       style="fill:none;stroke:#ff0000;stroke-width:1;stroke-miterlimit:4;stroke-dasharray:none;stroke-opacity:1"
       d="M 92.622243,85.598102 74.478184,95.999997"
       id="path1301"
       sodipodi:nodetypes="cc" />
    <path
       style="vector-effect:none;fill:#ffffff;fill-opacity:1;stroke:#000000;stroke-width:0.25;stroke-linecap:butt;stroke-linejoin:miter;stroke-miterlimit:4;stroke-dasharray:none;stroke-dashoffset:0;stroke-opacity:1"
       d="m 69.282031,94.999997 3.4641,-2 3.4641,2 -3.4641,2 z"
       id="path1303"
       sodipodi:nodetypes="ccccc" />
    <path
       style="fill:#ffffff;fill-opacity:1;stroke:#000000;stroke-width:0.25;stroke-miterlimit:4;stroke-dasharray:none;stroke-opacity:1"
       d="m 72.746131,101 3.4641,-2.000003 v -4 l -3.4641,2 z"
       id="path1305"
       sodipodi:nodetypes="ccccc" />
    <path
       style="fill:none;fill-opacity:1;stroke:#000000;stroke-width:0.25;stroke-linecap:square;stroke-miterlimit:4;stroke-dasharray:0.25, 0.499999;stroke-dashoffset:0;stroke-opacity:1;paint-order:stroke fill markers"
       d="m 76.210231,98.999997 -3.4641,-2 v -4"
       id="path1307" />
    <path
       style="fill:none;fill-opacity:1;stroke:#000000;stroke-width:0.25;stroke-linecap:square;stroke-miterlimit:4;stroke-dasharray:0.25, 0.499999;stroke-dashoffset:0;stroke-opacity:1;paint-order:stroke fill markers"
       d="m 200.18029,92.499997 -3.4641,2"
       id="path1313" />
    <path
       style="fill:none;stroke:#000000;stroke-width:0.25;stroke-miterlimit:4;stroke-dasharray:none;stroke-opacity:1"
       d="m 205.37644,73.499999 13.85641,8 1.73205,-1 -13.8564,-8 z"
       id="path1315"
       sodipodi:nodetypes="ccccc" />
    <path
       style="fill:none;stroke:#000000;stroke-width:0.25;stroke-miterlimit:4;stroke-dasharray:none;stroke-opacity:1"
       d="m 219.23285,81.499999 v 16 l 1.73205,-1 v -16 z"
       id="path1317"
       sodipodi:nodetypes="ccccc" />
    <path
       style="fill:#000000;fill-opacity:1;stroke:#000000;stroke-width:0.25;stroke-miterlimit:4;stroke-dasharray:none;stroke-opacity:1"
       d="m 205.37644,73.499999 v 16 l 13.85641,8 v -16 z"
       id="path1319"
       sodipodi:nodetypes="ccccc" />
    <path
       style="vector-effect:none;fill:none;fill-opacity:0;stroke:#000000;stroke-width:0.25;stroke-linecap:butt;stroke-linejoin:miter;stroke-miterlimit:4;stroke-dasharray:none;stroke-dashoffset:0;stroke-opacity:1"
       d="m 200.18029,96.499997 v -4 l -3.4641,-2 v 4 z"
       id="path1321"
       sodipodi:nodetypes="ccccc" />
    <path
       style="fill:none;stroke:#ff0000;stroke-width:4;stroke-miterlimit:4;stroke-dasharray:none;stroke-opacity:1"
       d="M 198.44824,93.499997 181.12773,103.5"
       id="path1323"
       sodipodi:nodetypes="cc" />
    <path
       style="vector-effect:none;fill:#ffffff;fill-opacity:1;stroke:none;stroke-width:0.25;stroke-linecap:butt;stroke-linejoin:miter;stroke-miterlimit:4;stroke-dasharray:none;stroke-dashoffset:0;stroke-opacity:1"
       d="m 213.17067,86.999997 v -2 l -1.73205,-1 v 2 z"
       id="path1325"
       sodipodi:nodetypes="ccccc" />
    <path
       style="vector-effect:none;fill:none;fill-opacity:0;stroke:#000000;stroke-width:0.25;stroke-linecap:butt;stroke-linejoin:miter;stroke-miterlimit:4;stroke-dasharray:none;stroke-dashoffset:0;stroke-opacity:1"
       d="m 175.06556,111 v -4 l -3.46411,-2 v 4 z"
       id="path1327"
       sodipodi:nodetypes="ccccc" />
    <path
       style="vector-effect:none;fill:#ffffff;fill-opacity:1;stroke:#000000;stroke-width:0.25;stroke-linecap:butt;stroke-linejoin:miter;stroke-miterlimit:4;stroke-dasharray:none;stroke-dashoffset:0;stroke-opacity:1"
       d="m 171.60145,105 6.92821,-4 3.4641,2 -6.9282,4 z"
       id="path1329"
       sodipodi:nodetypes="ccccc" />
    <path
       style="fill:#ffffff;fill-opacity:1;stroke:#000000;stroke-width:0.25;stroke-linecap:square;stroke-miterlimit:4;stroke-dasharray:none;stroke-opacity:1"
       d="m 175.06556,111 6.9282,-4 v -4 l -6.9282,4 z"
       id="path1331"
       sodipodi:nodetypes="ccccc" />
    <path
       style="fill:#000000;fill-opacity:1;stroke:none;stroke-width:0.999996;stroke-miterlimit:4;stroke-dasharray:none;stroke-opacity:1"
       d="m 171.77554,108.22464 c -0.53766,-1.30397 -0.276,-2.46162 0.58444,-2.58569 0.86044,-0.12406 1.99382,0.83244 2.53149,2.13641 0.53766,1.30397 0.276,2.46162 -0.58444,2.58569 -0.86044,0.12406 -1.99382,-0.83244 -2.53149,-2.13641 z"
       id="path1333"
       inkscape:path-effect="#path-effect1345"
       inkscape:original-d="m 170.73543,106.5 2.59807,-1.5 2.59808,4.5 -2.59808,1.5 z"
       sodipodi:nodetypes="ccccc" />
    <path
       style="fill:none;stroke:#ff0000;stroke-width:1;stroke-miterlimit:4;stroke-dasharray:none;stroke-opacity:1"
       d="m 212.26217,85.598102 -12.08188,6.901897"
       id="path1335"
       sodipodi:nodetypes="cc" />
    <path
       style="vector-effect:none;fill:#ffffff;fill-opacity:1;stroke:#000000;stroke-width:0.25;stroke-linecap:butt;stroke-linejoin:miter;stroke-miterlimit:4;stroke-dasharray:none;stroke-dashoffset:0;stroke-opacity:1"
       d="m 196.71619,90.499997 3.4641,-2 3.4641,2 -3.4641,2 z"
       id="path1337"
       sodipodi:nodetypes="ccccc" />
    <path
       style="fill:#ffffff;fill-opacity:1;stroke:#000000;stroke-width:0.25;stroke-miterlimit:4;stroke-dasharray:none;stroke-opacity:1"
       d="m 200.18029,96.499997 3.4641,-2 v -4 l -3.4641,2 z"
       id="path1339"
       sodipodi:nodetypes="ccccc" />
    <path
       style="fill:none;fill-opacity:1;stroke:#000000;stroke-width:0.25;stroke-linecap:square;stroke-miterlimit:4;stroke-dasharray:0.25, 0.499999;stroke-dashoffset:0;stroke-opacity:1;paint-order:stroke fill markers"
       d="m 203.64439,94.499997 -3.4641,-2 v -4"
       id="path1341" />
  </g>
</svg>
