<?xml version="1.0" encoding="UTF-8" standalone="no"?>
<svg
   xmlns:dc="http://purl.org/dc/elements/1.1/"
   xmlns:cc="http://creativecommons.org/ns#"
   xmlns:rdf="http://www.w3.org/1999/02/22-rdf-syntax-ns#"
   xmlns:svg="http://www.w3.org/2000/svg"
   xmlns="http://www.w3.org/2000/svg"
   xmlns:sodipodi="http://sodipodi.sourceforge.net/DTD/sodipodi-0.dtd"
   xmlns:inkscape="http://www.inkscape.org/namespaces/inkscape"
   width="169.50339mm"
   height="44.396217mm"
   viewBox="0 0 169.50339 44.396217"
   version="1.1"
   id="svg8"
   inkscape:version="1.0.1 (3bc2e813f5, 2020-09-07)"
   sodipodi:docname="x-ray-volume.svg">
  <defs
     id="defs2">
    <inkscape:path-effect
       effect="pts2ellipse"
       id="path-effect2624"
       is_visible="true"
       lpeversion="1"
       method="iso_circle"
       gen_arc="false"
       arc_other="false"
       slice_arc="false"
       gen_isometric_frame="false"
       draw_axes="false"
       gen_perspective_frame="false"
       draw_perspective_axes="false"
       rot_axes="-13"
       draw_ori_path="false" />
    <inkscape:path-effect
       effect="pts2ellipse"
       id="path-effect2576"
       is_visible="true"
       lpeversion="1"
       method="iso_circle"
       gen_arc="false"
       arc_other="false"
       slice_arc="false"
       gen_isometric_frame="false"
       draw_axes="false"
       gen_perspective_frame="false"
       draw_perspective_axes="false"
       rot_axes="-13"
       draw_ori_path="false" />
    <inkscape:path-effect
       effect="pts2ellipse"
       id="path-effect1345"
       is_visible="true"
       lpeversion="1"
       method="iso_circle"
       gen_arc="false"
       arc_other="false"
       slice_arc="false"
       gen_isometric_frame="false"
       draw_axes="false"
       gen_perspective_frame="false"
       draw_perspective_axes="false"
       rot_axes="-13"
       draw_ori_path="false" />
    <inkscape:path-effect
       effect="pts2ellipse"
       id="path-effect1311"
       is_visible="true"
       lpeversion="1"
       method="iso_circle"
       gen_arc="false"
       arc_other="false"
       slice_arc="false"
       gen_isometric_frame="false"
       draw_axes="false"
       gen_perspective_frame="false"
       draw_perspective_axes="false"
       rot_axes="-13"
       draw_ori_path="false" />
    <inkscape:path-effect
       effect="pts2ellipse"
       id="path-effect1154"
       is_visible="true"
       lpeversion="1"
       method="iso_circle"
       gen_arc="false"
       arc_other="false"
       slice_arc="false"
       gen_isometric_frame="false"
       draw_axes="false"
       gen_perspective_frame="false"
       draw_perspective_axes="false"
       rot_axes="-13"
       draw_ori_path="false" />
    <inkscape:path-effect
       effect="pts2ellipse"
       id="path-effect1124"
       is_visible="true"
       lpeversion="1"
       method="iso_circle"
       gen_arc="false"
       arc_other="false"
       slice_arc="false"
       gen_isometric_frame="false"
       draw_axes="false"
       gen_perspective_frame="false"
       draw_perspective_axes="false"
       rot_axes="-13"
       draw_ori_path="false" />
    <inkscape:path-effect
       effect="pts2ellipse"
       id="path-effect1038"
       is_visible="true"
       lpeversion="1"
       method="iso_circle"
       gen_arc="false"
       arc_other="false"
       slice_arc="false"
       gen_isometric_frame="false"
       draw_axes="false"
       gen_perspective_frame="false"
       draw_perspective_axes="false"
       rot_axes="-13"
       draw_ori_path="false" />
    <inkscape:path-effect
       effect="pts2ellipse"
       id="path-effect1006"
       is_visible="true"
       lpeversion="1"
       method="iso_circle"
       gen_arc="false"
       arc_other="false"
       slice_arc="false"
       gen_isometric_frame="false"
       draw_axes="false"
       gen_perspective_frame="false"
       draw_perspective_axes="false"
       rot_axes="-13"
       draw_ori_path="false" />
    <inkscape:path-effect
       effect="pts2ellipse"
       id="path-effect884"
       is_visible="true"
       lpeversion="1"
       method="iso_circle"
       gen_arc="false"
       arc_other="false"
       slice_arc="false"
       gen_isometric_frame="false"
       draw_axes="false"
       gen_perspective_frame="false"
       draw_perspective_axes="false"
       rot_axes="-13"
       draw_ori_path="false" />
  </defs>
  <sodipodi:namedview
     id="base"
     pagecolor="#ffffff"
     bordercolor="#666666"
     borderopacity="1.0"
     inkscape:pageopacity="0.0"
     inkscape:pageshadow="2"
     inkscape:zoom="4"
     inkscape:cx="313.70942"
     inkscape:cy="154.70691"
     inkscape:document-units="mm"
     inkscape:current-layer="layer1"
     inkscape:document-rotation="0"
     showgrid="true"
     fit-margin-top="0"
     fit-margin-left="0"
     fit-margin-right="0"
     fit-margin-bottom="0"
     inkscape:window-width="2560"
     inkscape:window-height="1376"
     inkscape:window-x="0"
     inkscape:window-y="27"
     inkscape:window-maximized="1"
     inkscape:snap-global="true">
    <inkscape:grid
       type="axonomgrid"
       id="grid835"
       originx="-51.711527"
       originy="-66.820293" />
  </sodipodi:namedview>
  <metadata
     id="metadata5">
    <rdf:RDF>
      <cc:Work
         rdf:about="">
        <dc:format>image/svg+xml</dc:format>
        <dc:type
           rdf:resource="http://purl.org/dc/dcmitype/StillImage" />
        <dc:title />
      </cc:Work>
    </rdf:RDF>
  </metadata>
  <g
     inkscape:label="Layer 1"
     inkscape:groupmode="layer"
     id="layer1"
     transform="translate(-51.711526,-66.82029)">
    <path
       style="fill:none;stroke:#000000;stroke-width:0.25;stroke-miterlimit:4;stroke-dasharray:none;stroke-opacity:1"
       d="m 149.82238,70.499997 13.85642,8 1.73205,-1 -13.85641,-8 z"
       id="path2606"
       sodipodi:nodetypes="ccccc" />
    <path
       style="fill:none;stroke:#000000;stroke-width:0.25;stroke-miterlimit:4;stroke-dasharray:none;stroke-opacity:1"
       d="m 163.6788,78.499997 v 16 l 1.73205,-1 v -16 z"
       id="path2608"
       sodipodi:nodetypes="ccccc" />
    <path
       style="fill:#000000;fill-opacity:1;stroke:#000000;stroke-width:0.25;stroke-miterlimit:4;stroke-dasharray:none;stroke-opacity:1"
       d="m 149.82238,70.499997 v 16 l 13.85642,8 v -16 z"
       id="path2610"
       sodipodi:nodetypes="ccccc" />
    <path
       style="vector-effect:none;fill:#ffffff;fill-opacity:1;stroke:none;stroke-width:0.25;stroke-linecap:butt;stroke-linejoin:miter;stroke-miterlimit:4;stroke-dasharray:none;stroke-dashoffset:0;stroke-opacity:1"
       d="m 162.81278,87.999997 v -4 l -3.4641,-2 v 4 z"
       id="path2692"
       sodipodi:nodetypes="ccccc" />
    <text
       xml:space="preserve"
       style="font-style:normal;font-weight:normal;font-size:4.23333px;line-height:1.25;font-family:sans-serif;letter-spacing:0px;word-spacing:0px;fill:#000000;fill-opacity:1;stroke:none;stroke-width:0.264583"
       x="114.5639"
       y="69.711655"
       id="text932"><tspan
         sodipodi:role="line"
         x="114.5639"
         y="69.711655"
         style="font-style:normal;font-variant:normal;font-weight:normal;font-stretch:normal;font-size:4.23333px;font-family:STIX;-inkscape-font-specification:STIX;stroke-width:0.264583"
         id="tspan930">(a)</tspan></text>
    <path
       style="fill:none;stroke:#ff0000;stroke-width:1;stroke-miterlimit:4;stroke-dasharray:none;stroke-opacity:1"
       d="m 133.36792,93.999995 4.33013,2.5"
       id="path2522"
       sodipodi:nodetypes="cc" />
    <path
       style="fill:none;stroke:#000000;stroke-width:0.25;stroke-miterlimit:4;stroke-dasharray:none;stroke-opacity:1"
       d="m 124.70766,72.999997 -13.85641,8 -1.73205,-1 13.8564,-8 z"
       id="path1096"
       sodipodi:nodetypes="ccccc" />
    <path
       style="fill:none;stroke:#000000;stroke-width:0.25;stroke-miterlimit:4;stroke-dasharray:none;stroke-opacity:1"
       d="m 110.85125,80.999997 v 16 l -1.73205,-1 v -16 z"
       id="path1098"
       sodipodi:nodetypes="ccccc" />
    <path
       style="fill:#000000;fill-opacity:1;stroke:#000000;stroke-width:0.25;stroke-miterlimit:4;stroke-dasharray:none;stroke-opacity:1"
       d="m 124.70766,72.999997 v 16 l -13.85641,8 v -16 z"
       id="path1100"
       sodipodi:nodetypes="ccccc" />
    <path
       style="vector-effect:none;fill:#ffffff;fill-opacity:1;stroke:none;stroke-width:0.25;stroke-linecap:butt;stroke-linejoin:miter;stroke-miterlimit:4;stroke-dasharray:none;stroke-dashoffset:0;stroke-opacity:1"
       d="m 116.0474,87.999997 v -4 l 3.4641,-2 v 4 z"
       id="path1106"
       sodipodi:nodetypes="ccccc" />
    <path
       style="fill:none;stroke:#ff0000;stroke-width:1;stroke-miterlimit:4;stroke-dasharray:none;stroke-opacity:1"
       d="m 117.82193,85.0981 12.08189,6.901897"
       id="path1116"
       sodipodi:nodetypes="cc" />
    <text
       xml:space="preserve"
       style="font-style:normal;font-weight:normal;font-size:4.23333px;line-height:1.25;font-family:sans-serif;letter-spacing:0px;word-spacing:0px;fill:#000000;fill-opacity:1;stroke:none;stroke-width:0.264583"
       x="155.14859"
       y="69.711655"
       id="text1255"><tspan
         sodipodi:role="line"
         x="155.14859"
         y="69.711655"
         style="font-style:normal;font-variant:normal;font-weight:normal;font-stretch:normal;font-size:4.23333px;font-family:STIX;-inkscape-font-specification:STIX;stroke-width:0.264583"
         id="tspan1253">(b)</tspan></text>
    <path
       style="vector-effect:none;fill:none;fill-opacity:0;stroke:#000000;stroke-width:0.25;stroke-linecap:butt;stroke-linejoin:miter;stroke-miterlimit:4;stroke-dasharray:none;stroke-dashoffset:0;stroke-opacity:1"
       d="m 115.18137,110.5 v -4 l -3.46411,-2 v 4 z"
       id="path2616"
       sodipodi:nodetypes="ccccc" />
    <path
       style="fill:#000000;fill-opacity:1;stroke:none;stroke-width:0.999996;stroke-miterlimit:4;stroke-dasharray:none;stroke-opacity:1"
       d="m 111.89135,107.72464 c -0.53766,-1.30397 -0.276,-2.46162 0.58444,-2.58569 0.86044,-0.12406 1.99382,0.83244 2.53149,2.13641 0.53766,1.30397 0.276,2.46162 -0.58444,2.58569 -0.86044,0.12406 -1.99382,-0.83244 -2.53149,-2.13641 z"
       id="path2622"
       inkscape:path-effect="#path-effect2624"
       inkscape:original-d="m 110.85124,106 2.59807,-1.5 2.59808,4.5 -2.59808,1.5 z"
       sodipodi:nodetypes="ccccc" />
    <path
       style="vector-effect:none;fill:#ffffff;fill-opacity:1;stroke:none;stroke-width:0.25;stroke-linecap:butt;stroke-linejoin:miter;stroke-miterlimit:4;stroke-dasharray:none;stroke-dashoffset:0;stroke-opacity:1"
       d="m 155.01855,83.499997 v -4 l -3.46411,-2 v 4 z"
       id="path2614"
       sodipodi:nodetypes="ccccc" />
    <path
       style="fill:none;stroke:#ff0000;stroke-width:4;stroke-miterlimit:4;stroke-dasharray:none;stroke-opacity:1"
       d="M 156.7506,82.499997 120.37752,103.5"
       id="path2612"
       sodipodi:nodetypes="cc" />
    <path
       style="vector-effect:none;fill:#ffffff;fill-opacity:1;stroke:#000000;stroke-width:0.25;stroke-linecap:butt;stroke-linejoin:miter;stroke-miterlimit:4;stroke-dasharray:none;stroke-dashoffset:0;stroke-opacity:1"
       d="m 131.63587,96.999997 v -4 l 3.4641,-2 v 4 z"
       id="path1102"
       sodipodi:nodetypes="ccccc" />
    <path
       style="vector-effect:none;fill:#ffffff;fill-opacity:1;stroke:#000000;stroke-width:0.25;stroke-linecap:butt;stroke-linejoin:miter;stroke-miterlimit:4;stroke-dasharray:none;stroke-dashoffset:0;stroke-opacity:1"
       d="m 111.71726,104.5 6.92821,-4 3.4641,2 -6.9282,4 z"
       id="path2618"
       sodipodi:nodetypes="ccccc" />
    <path
       style="fill:#ffffff;fill-opacity:1;stroke:#000000;stroke-width:0.25;stroke-linecap:square;stroke-miterlimit:4;stroke-dasharray:none;stroke-opacity:1"
       d="m 115.18137,110.5 6.9282,-4 v -4 l -6.9282,4 z"
       id="path2620"
       sodipodi:nodetypes="ccccc" />
    <path
       style="fill:none;fill-opacity:1;stroke:#000000;stroke-width:0.25;stroke-linecap:square;stroke-miterlimit:4;stroke-dasharray:0.25, 0.499999;stroke-dashoffset:0;stroke-opacity:1;paint-order:stroke fill markers"
       d="m 139.4301,97.499995 3.46409,2"
       id="path2512" />
    <path
       style="vector-effect:none;fill:none;fill-opacity:0;stroke:#000000;stroke-width:0.25;stroke-linecap:butt;stroke-linejoin:miter;stroke-miterlimit:4;stroke-dasharray:none;stroke-dashoffset:0;stroke-opacity:1"
       d="m 139.4301,101.5 v -4.000005 l 3.46409,-2 v 4 z"
       id="path2514"
       sodipodi:nodetypes="ccccc" />
    <path
       style="vector-effect:none;fill:#ffffff;fill-opacity:1;stroke:#000000;stroke-width:0.25;stroke-linecap:butt;stroke-linejoin:miter;stroke-miterlimit:4;stroke-dasharray:none;stroke-dashoffset:0;stroke-opacity:1"
       d="m 142.89419,95.499995 -3.46409,-2 -3.4641,2 3.4641,2 z"
       id="path2516"
       sodipodi:nodetypes="ccccc" />
    <path
       style="fill:#ffffff;fill-opacity:1;stroke:#000000;stroke-width:0.25;stroke-miterlimit:4;stroke-dasharray:none;stroke-opacity:1"
       d="m 139.4301,101.5 -3.4641,-2.000005 v -4 l 3.4641,2 z"
       id="path2518"
       sodipodi:nodetypes="ccccc" />
    <path
       style="fill:none;fill-opacity:1;stroke:#000000;stroke-width:0.25;stroke-linecap:square;stroke-miterlimit:4;stroke-dasharray:0.25, 0.499999;stroke-dashoffset:0;stroke-opacity:1;paint-order:stroke fill markers"
       d="m 135.966,99.499995 3.4641,-2 v -4"
       id="path2520" />
    <path
       style="fill:none;stroke:#ff0000;stroke-width:4;stroke-miterlimit:4;stroke-dasharray:none;stroke-opacity:1"
       d="M 141.16215,98.499995 148.95637,103"
       id="path1104"
       sodipodi:nodetypes="cc" />
    <path
       style="fill:none;fill-opacity:1;stroke:#000000;stroke-width:0.25;stroke-linecap:square;stroke-miterlimit:4;stroke-dasharray:0.25, 0.499999;stroke-dashoffset:0;stroke-opacity:1;paint-order:stroke fill markers"
       d="m 131.63587,92.999997 3.4641,2"
       id="path1203" />
    <path
       style="vector-effect:none;fill:#ffffff;fill-opacity:1;stroke:#000000;stroke-width:0.25;stroke-linecap:butt;stroke-linejoin:miter;stroke-miterlimit:4;stroke-dasharray:none;stroke-dashoffset:0;stroke-opacity:1"
       d="m 135.09997,90.999997 -3.4641,-2 -3.4641,2 3.4641,2 z"
       id="path1118"
       sodipodi:nodetypes="ccccc" />
    <path
       style="fill:#ffffff;fill-opacity:1;stroke:#000000;stroke-width:0.25;stroke-miterlimit:4;stroke-dasharray:none;stroke-opacity:1"
       d="m 131.63587,96.999997 -3.4641,-2 v -4 l 3.4641,2 z"
       id="path1120"
       sodipodi:nodetypes="ccccc" />
    <path
       style="fill:none;fill-opacity:1;stroke:#000000;stroke-width:0.25;stroke-linecap:square;stroke-miterlimit:4;stroke-dasharray:0.25, 0.499999;stroke-dashoffset:0;stroke-opacity:1;paint-order:stroke fill markers"
       d="m 128.17177,94.999997 3.4641,-2 v -4"
       id="path1199" />
    <path
       style="vector-effect:none;fill:none;fill-opacity:0;stroke:#000000;stroke-width:0.25;stroke-linecap:butt;stroke-linejoin:miter;stroke-miterlimit:4;stroke-dasharray:none;stroke-dashoffset:0;stroke-opacity:1"
       d="m 155.01854,110.5 v -4 l 3.46411,-2 v 4 z"
       id="path1108"
       sodipodi:nodetypes="ccccc" />
    <path
       style="fill:#ffffff;fill-opacity:1;stroke:#000000;stroke-width:0.25;stroke-linecap:square;stroke-miterlimit:4;stroke-dasharray:none;stroke-opacity:1"
       d="m 155.01854,110.5 -6.9282,-4 v -4 l 6.9282,4 z"
       id="path1112"
       sodipodi:nodetypes="ccccc" />
    <path
       style="fill:#000000;fill-opacity:1;stroke:none;stroke-width:0.999996;stroke-miterlimit:4;stroke-dasharray:none;stroke-opacity:1"
       d="m 157.72412,108.73692 c -0.86044,1.11761 -1.99383,1.46983 -2.53149,0.7867 -0.53766,-0.68313 -0.276,-2.14292 0.58444,-3.26054 0.86044,-1.11761 1.99383,-1.46983 2.53149,-0.7867 0.53766,0.68313 0.276,2.14292 -0.58444,3.26054 z"
       id="path1114"
       inkscape:path-effect="#path-effect1124"
       inkscape:original-d="m 159.34867,106 -2.59807,-1.5 -2.59808,4.5 2.59808,1.5 z"
       sodipodi:nodetypes="ccccc" />
    <path
       style="vector-effect:none;fill:#ffffff;fill-opacity:1;stroke:#000000;stroke-width:0.25;stroke-linecap:butt;stroke-linejoin:miter;stroke-miterlimit:4;stroke-dasharray:none;stroke-dashoffset:0;stroke-opacity:1"
       d="m 158.48265,104.5 -6.92821,-4 -3.4641,2 6.9282,4 z"
       id="path1110"
       sodipodi:nodetypes="ccccc" />
  </g>
</svg>
